@relation R_data_frame

@attribute AGE {1,2,4,5,6}
@attribute GENDER {1,2}
@attribute RACE {1,2,3,4,5,6,7,8,9}
@attribute SUB1 {2,3,4}
@attribute SERVICES {1,2,3,4,5,6,7,8}
@attribute FREQ1 {1,2,3}
@attribute FREQ_ATND_SELF_HELP {1,2,3,4,5}
@attribute REASON {1,2,3,4,5,6,7}
@attribute PSYPROB {1,2}

@data
2,2,8,2,5,3,1,2,1
2,2,8,2,6,3,2,2,1
2,2,5,2,2,3,1,2,1
2,2,5,2,2,3,1,1,2
2,2,1,2,2,3,1,1,1
2,2,8,2,6,3,1,4,1
2,2,8,3,5,3,1,2,2
2,2,8,2,6,3,1,4,2
2,2,5,2,2,3,1,4,1
5,2,1,2,7,1,1,4,2
2,2,8,3,6,3,3,1,2
2,2,1,2,2,3,1,1,2
2,2,8,3,5,3,4,1,1
4,2,8,2,2,3,1,2,1
2,2,1,2,2,3,1,1,1
2,2,1,2,6,2,4,4,1
2,2,8,2,5,2,2,2,2
2,2,8,2,5,3,1,2,1
2,2,5,2,2,3,1,3,2
2,2,1,2,2,3,1,7,2
2,2,5,2,2,3,1,1,2
5,2,1,2,2,3,1,1,2
2,2,1,2,2,3,1,1,2
2,2,1,2,2,3,1,2,2
2,2,8,2,7,2,4,4,2
2,2,8,2,6,3,4,2,1
2,2,8,2,2,3,2,1,1
2,2,8,2,2,3,1,2,2
2,2,5,2,2,3,1,2,2
2,2,4,4,6,3,1,1,2
2,2,4,4,7,3,1,1,1
2,2,5,3,2,3,1,1,1
5,2,1,2,2,3,1,1,2
4,2,2,4,6,3,5,2,1
2,2,8,2,2,3,1,1,1
2,2,8,2,2,3,1,1,1
2,2,8,2,2,3,4,2,1
2,2,5,2,6,3,5,1,2
2,2,8,3,2,3,1,1,1
2,2,8,2,7,2,1,1,2
2,2,8,2,6,3,3,1,2
2,2,5,2,6,3,1,2,1
2,2,8,2,5,3,3,2,2
2,2,1,2,6,3,4,2,2
5,2,5,2,2,3,4,1,1
2,2,1,2,2,3,1,1,2
2,2,1,2,7,3,1,4,2
2,2,8,2,7,3,1,4,2
2,2,1,2,7,3,1,2,2
4,2,5,2,2,3,1,1,2
4,1,8,2,2,3,1,2,2
2,1,8,2,6,3,1,2,2
2,1,5,2,2,3,1,2,2
5,1,1,2,2,3,1,1,2
5,1,1,2,2,3,1,1,2
5,1,8,2,7,3,1,5,2
4,1,1,2,2,3,1,1,1
5,1,8,2,2,3,3,1,2
2,1,1,2,2,3,1,2,2
2,1,8,2,2,3,1,2,2
2,1,1,2,2,3,1,1,2
5,1,5,2,2,3,4,2,2
5,1,5,2,2,3,3,2,2
2,1,8,4,6,2,3,1,2
2,1,8,2,2,3,1,1,2
2,1,1,2,7,1,1,1,2
5,1,8,2,7,2,1,4,1
2,1,8,2,6,3,1,2,1
2,1,8,2,6,3,1,2,1
2,1,5,2,2,3,2,1,2
5,1,5,2,2,3,1,2,2
2,1,8,2,6,2,1,2,2
2,1,4,2,2,3,1,2,1
2,1,4,2,2,3,1,2,1
2,1,5,2,7,2,1,1,2
2,1,8,2,7,2,1,2,2
4,1,2,2,7,3,1,1,2
2,1,1,2,6,2,1,2,2
2,1,1,2,2,3,1,2,2
2,1,1,2,6,3,1,2,2
4,1,8,2,2,3,1,2,2
4,1,8,2,2,3,1,3,2
4,1,1,2,2,3,1,1,2
2,1,8,3,7,2,1,2,2
2,1,8,3,6,3,4,4,2
2,1,8,2,6,2,1,2,1
4,1,5,2,2,3,2,1,2
4,1,5,2,2,3,1,2,1
5,1,2,2,2,3,1,1,1
2,1,5,2,2,3,2,2,1
2,1,8,2,6,3,1,4,2
4,1,5,2,2,3,3,2,2
2,2,8,3,6,3,1,2,1
2,1,1,2,6,1,1,1,2
2,1,1,2,2,3,1,1,1
4,1,1,2,7,2,1,2,1
4,1,8,2,7,2,1,4,2
5,1,5,2,2,3,4,1,1
2,1,5,2,2,3,1,1,1
2,1,5,2,2,3,1,2,2
2,1,8,3,6,3,2,2,1
2,1,1,2,6,3,1,3,2
2,1,5,2,2,3,2,1,1
2,1,5,2,6,3,1,4,2
4,1,5,2,2,3,3,1,2
2,1,8,2,7,2,1,1,2
4,1,1,2,7,2,2,2,1
2,1,1,2,6,3,1,4,2
2,1,5,2,2,3,1,2,2
5,1,2,2,7,2,1,4,2
2,1,1,2,7,1,1,4,1
5,1,1,2,7,1,1,1,2
2,1,8,2,2,3,1,2,2
4,1,5,2,6,3,4,2,1
4,1,5,2,6,3,2,2,1
2,1,1,2,6,3,1,1,2
2,1,5,2,2,3,1,2,2
4,1,1,2,6,2,1,1,1
5,1,2,2,7,3,4,1,2
2,1,1,3,6,3,4,2,1
2,1,8,2,2,3,1,1,2
4,1,1,2,7,1,4,2,2
5,1,1,2,7,2,3,3,2
5,1,1,2,7,2,1,2,2
5,1,1,2,7,2,1,1,2
4,1,8,2,7,3,1,2,2
2,1,8,3,2,3,1,1,2
2,1,1,2,6,3,1,2,1
2,1,8,2,6,2,1,2,2
4,1,5,2,7,1,1,3,1
2,1,8,2,2,3,1,1,2
5,1,5,2,7,1,1,2,1
5,1,8,2,6,3,2,4,2
5,1,5,2,2,3,1,1,1
4,1,1,2,2,3,1,4,2
2,1,5,2,7,2,1,1,1
2,1,1,2,6,3,1,2,2
5,1,8,2,6,3,1,4,2
5,1,5,2,2,3,1,1,2
5,1,5,2,2,3,1,1,1
2,1,5,3,6,3,1,2,1
5,1,8,4,6,3,1,1,1
4,1,5,2,2,3,4,1,2
4,1,1,2,7,2,1,2,2
4,1,1,2,7,2,3,7,2
2,1,1,2,6,3,2,3,2
2,1,1,2,7,1,4,1,1
5,1,8,2,6,3,2,4,1
2,1,8,2,6,2,2,1,2
5,1,1,2,6,3,1,1,2
5,1,8,2,7,3,4,4,2
5,1,1,2,6,3,1,2,2
2,1,5,2,2,3,2,1,2
2,1,1,2,6,3,1,1,2
2,1,8,2,2,3,1,2,1
2,1,5,2,2,3,1,2,1
2,1,8,2,6,3,2,3,1
2,1,5,2,2,3,1,1,1
2,1,5,2,2,3,2,1,1
2,1,5,2,2,3,2,1,1
2,1,8,2,7,3,1,1,1
5,1,1,4,6,3,3,2,2
5,1,1,4,7,3,1,2,2
2,1,8,2,7,3,2,2,1
2,1,5,2,2,3,1,1,2
2,1,1,2,7,3,2,4,2
4,1,8,2,2,3,1,2,1
5,1,5,2,2,3,1,2,1
5,1,5,2,2,3,2,1,1
2,1,1,3,6,3,4,2,1
5,1,5,2,2,3,1,2,2
5,1,5,2,2,3,1,2,2
2,1,8,2,2,3,1,2,2
2,1,8,2,2,3,1,3,2
2,1,8,2,2,3,1,1,2
2,1,1,2,7,3,1,1,1
4,1,6,4,6,3,1,2,2
2,1,8,4,7,2,1,4,2
2,1,8,4,6,2,1,2,1
4,1,8,2,6,2,4,4,1
4,1,5,2,6,3,2,5,1
2,1,5,2,2,3,1,1,1
2,1,1,2,7,3,1,4,2
5,1,8,2,6,2,1,2,2
4,1,5,2,6,3,2,2,2
2,1,8,2,6,3,3,4,2
2,1,5,2,2,3,1,2,2
2,1,7,4,6,1,1,2,1
2,1,1,2,2,3,1,1,2
2,1,8,2,2,3,1,2,2
2,1,8,2,7,3,5,2,2
4,1,1,2,6,1,1,2,1
2,1,1,4,6,3,1,2,1
2,1,5,2,2,3,1,2,2
2,1,8,2,6,3,1,4,1
2,1,2,2,6,3,1,2,2
4,1,5,2,2,3,1,1,2
2,1,8,2,6,3,2,5,2
2,2,5,2,2,3,1,2,1
2,1,1,3,6,3,1,4,1
5,1,1,2,6,3,1,2,1
4,1,7,2,2,3,2,1,1
2,1,5,2,7,3,4,1,1
2,1,8,2,7,2,1,1,1
2,1,1,2,6,3,1,1,2
5,1,5,2,2,3,1,1,2
2,1,5,2,6,3,1,2,1
2,1,1,2,6,3,3,2,1
2,1,1,2,6,3,1,2,2
5,1,5,3,2,3,1,1,1
5,1,5,3,2,3,2,1,1
2,1,1,4,6,3,1,3,2
2,1,5,2,2,3,4,2,2
2,1,5,2,2,3,3,1,2
5,1,5,2,2,2,4,1,2
4,1,5,2,2,3,1,1,2
4,1,5,2,2,3,1,1,2
4,1,5,2,2,3,1,1,2
2,1,5,2,7,3,1,2,2
2,1,1,2,2,3,2,1,2
2,1,1,2,6,2,2,2,2
2,1,8,2,6,3,1,2,2
4,1,5,2,2,3,1,1,2
2,1,5,2,2,3,3,1,2
4,1,8,3,6,3,4,2,1
2,1,8,3,7,2,3,5,2
2,1,8,2,7,2,2,4,2
2,1,1,3,2,3,1,3,1
2,1,8,2,6,3,1,2,1
2,1,8,2,6,3,1,2,2
2,1,4,2,2,3,2,2,1
4,1,1,2,2,3,1,2,1
5,1,5,2,2,3,1,1,1
2,1,8,2,6,3,2,2,1
2,1,7,2,7,2,1,1,2
2,1,8,2,2,3,3,2,2
2,1,8,2,6,3,2,2,1
4,1,1,2,2,3,1,2,2
4,1,1,2,6,3,1,2,2
2,1,2,3,7,3,4,4,1
2,1,5,2,2,3,1,1,2
4,1,1,2,2,3,1,1,1
4,1,5,2,2,2,4,1,2
2,1,8,2,7,2,1,1,2
2,1,8,2,2,3,1,1,2
4,1,1,2,7,1,1,1,2
5,1,1,2,2,3,1,1,2
5,1,1,3,6,2,1,2,2
5,1,5,2,2,3,1,2,1
2,1,1,2,6,2,1,2,1
2,1,8,2,6,2,1,2,2
2,1,5,2,2,3,2,1,2
2,1,9,4,7,3,5,2,1
4,1,8,2,2,3,4,1,2
4,1,8,2,7,3,4,2,2
2,1,1,2,2,3,1,2,1
2,1,1,2,2,3,1,2,1
2,1,5,2,2,3,1,2,1
4,1,8,2,2,3,2,1,1
2,1,1,2,2,3,1,2,2
2,1,1,2,2,3,1,1,2
2,1,8,3,7,3,2,1,1
2,1,1,2,7,2,1,4,1
2,1,8,2,6,3,3,2,2
5,1,1,2,7,1,4,2,2
2,1,1,2,7,2,1,1,2
2,1,1,2,2,3,1,2,2
2,1,5,2,2,3,1,1,2
2,1,5,2,7,3,1,2,2
4,1,1,4,7,2,1,1,1
5,1,2,2,7,2,2,1,2
4,1,8,2,2,3,4,1,1
5,1,8,2,7,3,4,7,2
2,1,5,2,2,3,4,1,1
5,1,5,2,2,3,1,1,1
4,1,5,2,2,3,1,1,2
2,1,8,2,7,3,1,2,2
2,1,8,2,7,2,1,1,2
2,1,1,3,5,3,1,4,1
2,1,8,2,2,3,1,1,1
2,1,5,2,2,2,1,2,2
4,1,8,2,6,3,1,2,2
2,1,8,2,2,3,1,4,2
2,1,8,2,6,3,1,1,2
5,1,8,2,7,3,1,2,2
2,1,1,2,6,3,2,1,1
2,1,1,2,2,3,1,2,2
4,1,5,2,2,3,1,1,1
4,1,1,2,7,2,1,4,2
2,1,1,2,7,2,2,2,2
2,1,5,2,2,3,2,1,1
2,1,1,2,7,3,2,2,2
2,1,8,2,6,3,1,4,1
2,1,1,2,2,3,1,2,2
4,1,8,2,2,3,1,2,2
2,1,1,2,6,2,3,4,2
5,1,5,2,2,3,1,1,1
5,1,8,2,7,3,1,1,2
4,1,1,2,6,2,1,2,2
2,1,8,2,2,3,1,2,2
2,1,8,2,2,2,1,2,2
4,1,5,2,2,3,4,2,1
4,1,5,2,2,3,4,2,1
4,1,5,2,2,3,1,1,1
4,1,8,2,7,3,3,2,2
5,1,1,2,2,3,1,1,2
2,1,8,2,7,2,2,2,2
2,1,5,2,2,3,1,2,2
4,1,4,2,2,3,1,1,2
2,1,8,2,6,3,1,7,1
4,1,7,2,2,3,1,2,1
4,1,5,2,2,3,1,1,2
4,1,5,2,2,3,1,2,1
4,1,5,2,2,3,1,2,2
5,1,1,2,7,2,4,7,1
2,1,8,4,6,3,3,1,2
4,1,5,2,2,3,1,2,1
4,1,5,2,2,3,1,2,1
5,1,8,2,7,2,4,3,2
5,1,1,3,7,2,1,4,2
6,1,2,2,7,2,4,1,1
2,1,1,2,6,3,1,2,2
2,1,1,4,6,3,3,1,2
2,1,5,2,2,3,1,1,2
2,1,5,2,2,3,1,4,2
2,1,8,2,7,3,1,4,2
2,1,5,3,5,3,2,2,1
2,1,5,2,2,3,2,2,1
5,1,5,2,2,3,3,1,1
2,1,8,2,2,3,1,1,2
5,1,4,4,7,3,1,4,2
2,1,8,2,2,3,1,2,2
5,1,8,2,7,1,1,1,2
4,1,5,2,2,3,1,2,1
4,1,5,2,2,3,4,2,2
4,1,1,2,7,3,1,2,1
2,1,8,2,6,2,3,1,1
2,1,1,2,2,3,1,2,2
2,1,5,2,2,3,1,3,2
2,1,4,3,2,2,1,1,1
2,1,4,3,2,2,1,2,1
2,1,1,4,7,2,1,4,2
2,1,1,2,7,2,2,4,2
2,1,4,2,2,3,3,2,1
2,1,1,4,6,3,1,2,1
2,1,5,2,6,3,1,2,2
2,1,5,2,2,3,2,1,1
5,1,5,2,2,3,1,1,1
6,1,5,2,2,3,1,1,2
2,1,1,2,6,2,1,4,2
2,1,4,2,2,3,1,1,2
5,1,5,2,2,3,1,1,1
5,1,5,2,2,3,1,1,1
2,1,5,2,2,3,1,2,2
5,1,5,2,2,3,1,1,2
2,2,1,2,7,3,1,3,1
5,2,5,2,7,2,1,1,2
2,2,5,2,7,3,1,1,1
2,2,5,2,7,1,4,3,1
5,2,5,4,7,3,1,1,1
1,2,8,2,7,2,1,3,1
2,2,5,2,7,2,1,3,1
2,2,1,2,7,2,1,2,1
4,2,8,2,7,3,1,2,1
2,2,7,4,7,3,3,3,1
2,2,8,2,7,3,1,3,1
5,2,8,2,7,2,1,2,2
5,2,8,2,7,2,1,3,2
2,2,5,3,7,1,2,4,1
6,1,5,2,7,2,1,1,1
4,1,1,2,7,2,1,1,2
5,1,1,2,7,2,1,1,2
4,1,5,2,7,1,1,1,2
2,1,8,4,7,3,1,4,1
5,1,5,2,7,2,1,2,1
2,1,1,2,7,2,1,1,2
2,1,1,2,7,1,5,3,1
5,1,5,2,7,1,1,7,1
2,1,1,2,7,2,4,7,1
2,1,1,2,7,1,1,1,2
6,1,8,2,7,2,1,1,2
2,1,5,2,7,1,4,7,1
4,1,5,2,7,2,1,1,2
2,1,1,2,7,1,4,4,1
2,1,8,4,7,3,1,3,1
2,1,1,2,7,2,1,3,2
2,1,5,4,7,3,1,3,1
4,1,5,4,7,3,1,7,1
2,1,1,2,7,3,1,3,2
2,1,5,4,7,2,1,3,1
2,1,7,4,7,2,1,3,1
2,1,7,4,7,3,1,3,1
2,2,1,2,5,2,1,1,2
2,2,1,2,5,2,1,3,2
2,2,1,2,7,1,1,3,2
4,2,1,2,7,1,1,1,2
4,2,1,2,7,1,1,1,2
2,2,1,2,7,2,1,3,2
4,2,1,2,7,1,1,1,2
2,2,8,2,5,2,1,1,2
2,2,8,2,5,3,1,1,2
2,2,1,2,5,2,1,2,2
4,2,1,2,5,1,1,1,2
2,2,1,2,5,1,1,4,1
2,2,8,2,6,2,1,2,2
2,2,1,2,5,1,1,3,2
2,2,1,2,5,2,1,1,2
2,2,1,3,5,1,1,2,2
5,2,1,2,5,1,4,4,2
2,2,1,2,7,2,1,3,2
2,2,1,2,5,1,1,1,2
4,2,8,2,5,3,1,1,1
2,2,1,4,7,2,1,1,2
4,2,1,2,5,1,1,1,2
2,2,1,2,5,2,1,2,2
2,2,8,2,5,3,5,3,2
4,2,1,2,5,3,1,2,2
4,2,1,2,7,1,1,3,2
2,2,5,2,5,3,2,7,2
2,2,1,2,7,1,1,1,2
2,2,5,2,7,1,1,1,2
4,2,1,2,5,2,1,2,2
4,2,1,2,5,3,1,1,1
4,2,1,2,7,2,1,1,2
4,2,1,2,7,2,1,1,1
4,2,1,2,7,1,1,1,2
4,2,1,2,5,2,1,3,2
4,2,1,2,5,3,1,2,2
2,1,1,2,7,1,1,1,2
2,1,8,2,5,1,2,3,2
2,1,8,2,7,1,1,1,2
2,1,1,2,7,1,1,1,2
5,1,5,3,5,3,1,2,1
2,1,1,2,5,1,1,2,2
5,1,1,2,5,2,1,2,2
2,1,1,2,7,2,1,1,2
2,1,1,2,7,1,1,1,2
2,1,8,2,7,1,1,1,2
2,1,8,2,7,2,1,1,2
2,1,1,2,7,1,1,1,2
2,1,1,4,7,3,1,1,2
2,1,1,2,5,1,1,1,2
2,1,8,2,7,1,1,2,2
2,1,7,2,7,1,1,1,2
2,1,1,2,7,1,1,1,2
4,1,1,2,6,2,1,3,2
2,1,5,2,5,1,1,1,1
2,1,8,2,5,1,2,1,2
2,1,1,2,7,1,1,1,2
2,1,1,2,5,1,1,3,2
2,1,1,2,7,1,1,1,2
2,1,1,2,7,1,1,1,2
2,1,8,2,7,3,1,2,2
4,1,5,2,5,1,3,2,2
4,1,1,2,5,2,1,1,2
2,1,1,2,7,1,1,1,2
2,1,8,2,7,1,1,1,2
2,1,1,2,7,1,1,2,2
2,1,2,2,5,3,2,3,2
2,1,1,2,5,2,1,1,2
2,1,1,2,7,1,1,1,2
2,1,1,2,7,1,1,1,2
4,1,1,2,5,2,2,3,2
5,1,5,2,5,3,1,3,2
2,1,5,3,5,2,1,3,2
5,1,1,2,7,1,1,1,2
4,1,5,4,7,2,1,1,2
2,1,1,4,5,3,1,1,2
5,1,1,2,7,3,1,1,2
2,1,5,2,5,3,1,1,2
2,1,1,3,5,2,2,2,2
4,1,8,2,5,2,3,1,2
5,1,5,4,7,2,1,2,1
2,2,1,2,5,1,1,1,2
5,2,1,2,7,1,1,3,2
2,2,1,2,7,1,2,3,2
2,2,1,2,5,1,1,1,2
4,2,1,2,5,1,1,2,2
2,1,1,2,7,1,1,1,2
5,1,1,2,5,2,1,1,2
2,1,1,2,7,1,1,2,2
4,1,1,2,7,2,5,3,2
2,1,1,2,7,1,1,1,2
2,1,1,2,5,1,1,1,2
2,1,1,2,7,1,2,3,2
2,1,1,2,7,1,1,3,2
2,2,1,2,7,2,1,4,1
2,2,1,2,7,2,1,1,1
2,2,1,2,7,2,1,1,2
2,2,1,2,7,1,1,7,2
2,2,1,2,7,3,1,3,2
4,2,1,2,7,2,1,7,1
2,2,1,2,7,2,1,1,1
5,2,1,2,7,1,4,4,1
4,2,1,2,6,1,1,3,2
4,2,1,2,7,2,1,2,2
2,2,1,2,7,1,2,3,1
2,2,1,3,7,1,1,2,2
5,2,1,2,7,1,1,1,1
4,2,1,3,7,1,2,4,1
5,2,8,2,7,3,1,1,1
4,2,1,2,7,1,2,1,1
2,2,5,3,7,1,1,7,1
5,2,5,2,7,3,1,3,1
2,2,8,3,6,1,1,4,1
2,2,5,2,6,3,1,2,1
2,2,8,4,7,2,1,3,1
2,2,1,2,6,3,1,3,2
2,2,1,2,7,3,1,3,1
2,2,1,2,6,2,1,3,1
2,2,1,2,6,1,1,3,1
2,2,1,2,7,1,1,3,1
4,2,5,2,7,2,1,1,2
2,2,8,2,6,3,1,4,2
4,2,2,2,7,3,1,3,2
2,2,2,2,7,2,2,3,2
5,2,5,2,7,1,2,1,1
2,2,8,2,7,2,1,3,2
2,2,5,3,6,3,1,3,2
2,2,8,3,7,1,1,4,2
4,2,1,2,6,3,1,3,1
2,2,1,2,7,3,1,3,1
1,1,8,2,7,2,1,1,2
4,1,1,2,6,1,1,1,2
2,1,8,4,7,3,1,1,1
2,1,1,2,6,2,1,1,2
2,1,8,4,7,2,1,2,1
4,1,5,3,7,1,2,1,1
2,1,8,4,7,3,1,1,2
2,1,1,2,7,2,1,3,2
2,1,1,2,7,2,1,2,2
2,1,1,2,7,2,1,3,2
2,1,8,2,7,2,1,3,1
2,1,5,3,7,1,1,1,2
2,1,7,2,7,1,1,1,2
4,1,5,2,6,3,1,3,2
4,1,5,2,7,2,1,3,2
2,1,1,2,6,2,1,1,1
2,1,5,4,7,2,1,1,1
2,1,8,2,7,3,1,1,1
5,1,7,2,6,3,2,4,1
4,1,5,4,7,3,2,1,2
4,1,1,2,7,2,4,1,1
4,1,1,2,7,1,1,3,1
2,1,1,2,7,1,1,2,1
4,1,5,2,6,3,1,3,2
4,1,5,2,7,3,1,4,2
2,1,1,2,7,2,1,1,2
2,1,5,2,7,3,2,1,1
2,1,5,2,7,1,1,1,2
2,1,8,2,6,3,1,3,2
5,1,1,2,7,1,1,1,2
2,1,5,2,7,1,1,1,2
2,1,8,3,7,2,1,3,1
5,1,2,2,7,1,4,3,1
2,1,1,2,6,2,1,4,1
4,1,5,2,7,1,2,2,1
4,1,5,2,7,3,2,3,2
2,1,5,2,7,2,1,3,2
2,1,1,2,7,1,1,1,2
4,1,1,2,7,3,1,2,1
2,1,1,2,7,2,1,1,2
2,1,1,2,7,2,1,1,2
2,1,5,2,6,1,1,3,2
2,1,1,2,7,2,1,1,2
2,1,8,2,6,1,2,2,1
2,1,1,2,7,2,1,3,2
2,1,8,4,7,3,1,3,2
5,1,5,2,7,2,1,1,2
2,1,8,2,7,3,1,4,2
2,1,5,2,7,1,2,1,2
2,1,5,3,7,1,2,1,2
2,1,5,2,6,3,1,3,2
5,1,5,2,7,2,1,1,2
1,1,5,4,7,2,1,3,2
4,1,1,2,7,2,1,3,1
2,1,8,2,6,2,1,3,1
2,1,6,3,6,2,1,4,2
2,1,5,2,6,2,1,2,2
2,1,1,4,7,1,1,4,2
2,1,1,2,7,1,1,4,1
2,2,5,2,7,2,1,3,1
2,2,1,2,7,2,1,3,1
2,2,5,2,7,1,1,3,2
2,2,1,2,7,1,1,1,2
2,2,5,2,7,2,1,3,2
2,2,5,2,7,1,1,3,1
2,2,8,4,7,3,1,7,1
2,2,5,2,7,2,1,3,1
2,2,5,2,7,1,1,3,2
2,2,5,2,7,1,2,1,2
2,2,5,2,7,3,1,3,2
2,2,1,2,7,2,1,3,2
1,1,8,2,7,2,1,2,1
2,1,8,2,7,3,1,5,2
2,1,5,2,7,2,1,4,1
2,1,5,2,7,3,1,4,1
2,1,5,2,7,1,2,1,2
2,1,5,2,7,1,1,1,2
5,1,4,2,7,1,1,4,1
2,1,8,2,7,3,4,3,2
2,1,5,2,7,3,1,1,2
4,1,5,2,7,3,1,3,2
2,1,2,2,7,1,1,1,2
4,1,5,2,7,2,1,1,2
5,1,5,2,7,3,1,1,2
4,1,5,2,7,3,4,3,1
2,1,1,2,7,2,1,3,2
2,1,1,2,7,1,1,1,2
2,1,5,3,7,1,1,2,2
2,1,5,2,7,1,1,1,1
5,1,5,4,7,1,1,4,2
2,1,5,2,7,3,1,1,2
5,1,5,2,7,2,1,2,2
2,1,5,2,7,2,1,3,2
2,1,1,2,7,3,1,1,2
2,1,4,3,7,1,1,2,2
2,1,5,3,7,1,4,4,2
2,1,5,2,7,3,1,3,2
4,2,6,2,7,1,1,1,2
2,2,5,3,6,2,1,1,2
2,2,8,3,5,2,1,4,1
4,2,5,3,6,2,1,4,2
2,2,1,4,6,3,4,3,2
4,2,8,2,7,1,1,1,2
2,2,1,2,7,2,1,3,2
2,2,1,4,7,3,1,1,1
4,2,5,2,6,1,1,1,2
2,2,1,2,6,2,1,2,1
2,2,8,2,6,3,2,2,1
2,2,5,2,7,1,4,5,1
2,2,8,2,6,2,1,2,1
2,2,5,3,7,1,2,3,2
2,2,5,4,7,3,2,1,1
2,2,5,2,7,3,1,1,2
2,2,5,2,7,2,1,1,2
2,2,5,3,5,3,1,4,2
2,2,5,3,5,3,1,2,2
2,2,8,2,5,3,1,2,2
2,2,1,3,6,2,1,2,2
2,2,1,2,6,2,1,1,1
2,2,2,2,5,1,2,2,1
2,2,5,2,7,2,1,3,1
2,2,8,4,6,3,1,3,1
2,2,8,2,6,3,5,1,1
2,2,1,2,7,2,1,3,2
4,2,9,2,7,1,1,3,2
2,2,8,2,6,1,1,4,2
2,2,8,2,7,1,1,2,2
2,2,5,2,7,2,1,3,2
2,2,5,3,7,2,1,1,2
4,2,5,3,7,3,1,2,1
2,2,5,3,7,1,2,1,1
2,2,5,3,6,2,1,3,2
2,2,1,2,5,3,1,2,2
2,2,5,3,7,1,2,1,2
2,2,5,2,6,3,1,1,2
2,2,5,2,5,2,1,2,1
5,2,5,2,6,2,1,4,1
4,2,1,2,6,3,1,3,1
2,2,5,2,6,1,1,2,2
2,2,5,2,7,1,1,3,2
2,2,5,4,7,3,1,3,1
2,2,5,3,6,2,1,1,2
2,2,5,2,5,3,1,2,1
2,2,4,2,6,3,1,3,2
4,2,8,2,7,2,1,3,2
2,2,5,3,7,1,4,2,2
2,2,5,4,7,2,4,2,1
2,2,5,4,7,2,4,1,1
2,2,5,2,7,1,3,2,1
2,2,8,3,5,3,1,2,1
2,2,8,3,5,3,1,2,1
5,2,8,2,6,1,2,2,2
2,2,6,2,6,2,1,3,2
2,2,8,2,6,2,1,4,2
2,2,5,2,6,2,4,2,1
2,2,5,2,5,1,1,4,2
2,2,5,2,7,1,1,2,2
5,2,5,2,7,1,2,2,1
2,2,1,3,6,2,1,2,1
2,2,1,3,6,2,1,2,1
4,2,5,2,6,2,1,1,2
2,2,5,2,5,3,1,1,1
2,2,8,2,5,3,1,3,1
2,2,8,3,6,2,1,4,1
2,2,8,2,5,3,1,3,2
2,2,1,4,6,3,2,3,2
2,2,2,2,6,2,1,3,1
2,2,5,3,6,2,1,1,1
4,2,1,2,6,1,2,1,2
4,2,8,3,7,1,1,5,2
2,2,5,2,5,1,1,2,2
2,2,4,3,7,1,3,1,2
2,2,5,2,6,3,1,1,1
2,2,5,3,6,1,1,3,2
2,2,8,3,6,3,1,1,2
2,2,5,2,7,2,1,1,2
2,2,8,2,7,2,1,3,2
4,2,1,3,6,2,4,5,2
2,2,8,2,7,2,1,1,2
2,2,5,3,7,1,3,1,2
2,2,1,2,6,2,3,1,1
2,2,5,2,6,1,1,1,1
4,2,1,2,6,2,3,3,1
2,2,8,2,6,2,4,4,1
2,2,1,4,5,2,1,2,1
2,2,5,2,7,1,1,1,2
2,2,1,2,5,3,1,3,2
2,2,1,2,5,3,1,2,2
2,2,1,3,5,3,1,2,1
2,2,5,2,6,2,1,2,2
2,2,8,3,5,3,1,2,1
4,2,5,4,7,1,3,1,1
2,2,5,2,7,2,1,2,2
2,2,5,4,6,3,3,7,1
2,2,5,4,6,3,3,2,1
2,2,8,4,6,3,1,3,1
2,2,5,3,6,1,2,3,1
2,2,1,2,6,1,1,1,2
2,2,5,2,5,1,4,1,1
2,2,8,2,6,3,1,1,2
5,2,8,4,7,3,1,4,2
2,2,1,2,6,3,4,2,2
2,2,8,3,7,2,4,3,1
2,2,5,2,6,1,3,3,1
2,2,8,3,7,3,4,3,2
2,2,5,2,6,2,1,1,1
2,2,1,2,5,2,1,4,1
2,2,1,2,5,3,1,3,1
4,2,9,2,7,1,3,3,1
4,2,1,2,6,2,1,2,1
4,2,1,2,7,2,4,3,1
4,2,5,2,6,3,2,4,1
4,2,5,2,6,3,2,2,1
5,2,5,2,5,2,3,1,1
2,2,1,2,6,1,4,2,2
2,2,1,2,6,3,2,1,2
2,2,5,2,6,3,1,3,1
4,2,5,2,6,3,1,7,1
5,2,5,2,6,3,1,1,1
2,2,5,2,6,1,1,3,2
4,2,1,4,5,3,1,2,1
2,2,5,3,5,3,1,2,1
2,2,5,2,5,3,1,1,2
2,2,5,3,5,1,4,1,1
2,2,1,2,7,2,1,2,1
2,2,8,2,5,3,1,2,2
2,2,8,2,7,2,1,1,1
2,2,5,2,7,1,1,2,2
2,2,1,2,5,3,1,5,2
2,2,1,2,5,2,1,2,2
2,2,1,2,5,2,1,2,2
2,2,5,3,6,1,1,1,2
2,2,5,2,7,1,3,1,2
5,2,5,2,7,1,1,1,2
2,2,1,3,5,1,4,4,1
2,2,8,2,6,2,1,4,2
2,2,1,2,6,3,1,3,2
2,2,5,2,6,3,1,2,2
2,2,9,2,6,2,1,1,2
2,2,5,3,5,3,1,3,2
2,2,5,2,7,3,1,2,2
2,2,1,2,7,2,1,4,2
2,2,5,2,6,2,1,3,1
2,2,5,3,5,3,4,2,1
2,2,5,4,6,2,1,1,2
2,2,1,2,5,3,1,2,1
2,2,5,2,6,2,1,1,1
5,2,8,2,6,1,3,3,2
2,2,5,2,6,1,2,2,1
2,2,5,2,5,2,1,2,1
2,2,1,2,7,2,1,3,2
2,2,5,2,7,3,1,2,2
2,2,5,4,7,2,1,2,2
2,2,5,3,6,3,1,1,1
5,2,5,2,6,2,3,5,2
2,2,1,3,5,3,1,4,2
2,2,1,2,7,1,1,1,2
2,2,1,2,5,2,2,1,2
2,2,5,2,6,3,2,2,2
2,2,8,2,5,3,2,2,2
2,2,4,4,6,2,1,3,2
5,2,8,2,5,2,1,4,1
2,2,8,2,6,3,1,1,1
2,2,1,2,6,1,1,4,2
2,2,5,2,7,3,1,2,2
2,2,1,3,7,1,4,2,2
2,2,5,2,6,3,1,2,1
2,2,5,2,6,3,1,3,1
4,2,1,2,7,2,3,3,2
2,2,5,2,7,2,4,2,1
4,2,8,2,6,3,1,1,1
2,2,5,2,6,3,1,2,2
4,2,5,4,6,1,1,5,1
4,2,5,2,6,3,1,2,2
2,2,7,2,5,3,1,1,2
2,2,5,2,5,1,4,1,1
2,2,5,2,6,1,4,1,1
2,2,5,2,6,3,1,1,1
2,2,5,3,6,2,4,3,1
2,2,5,2,7,2,1,2,2
2,2,1,2,6,2,1,3,1
2,2,8,3,6,3,1,3,1
2,2,5,3,6,1,3,3,2
2,2,5,2,6,3,2,4,2
2,2,5,2,6,2,3,2,1
2,2,5,2,7,1,1,3,1
2,2,1,2,6,2,1,3,2
2,2,1,3,5,1,1,2,2
2,2,1,3,6,3,3,4,2
2,2,5,3,5,3,1,2,2
2,2,9,3,6,1,1,3,2
2,2,1,3,5,1,1,4,2
2,2,8,2,7,2,2,3,2
4,2,1,2,7,1,2,1,1
2,2,1,3,5,2,4,3,1
2,2,1,4,5,3,1,4,1
2,2,5,3,5,3,1,4,1
2,2,8,4,6,3,1,3,2
2,2,5,3,7,1,2,1,1
2,2,2,2,5,3,2,1,1
2,2,8,2,7,1,1,2,1
2,2,5,2,7,1,1,3,2
2,2,8,3,6,3,2,2,1
2,2,5,3,7,2,1,1,2
2,2,5,3,6,1,1,2,2
2,2,8,2,7,3,4,2,2
2,2,8,4,7,2,1,1,1
2,2,8,2,7,2,1,1,2
2,2,5,2,5,3,1,2,1
2,2,5,2,7,3,1,1,2
2,2,5,2,6,1,1,3,1
2,2,1,2,5,1,1,2,1
2,2,8,2,7,2,1,3,2
5,2,8,2,6,2,3,1,2
2,2,1,3,6,2,1,3,2
2,2,8,3,6,3,1,2,2
2,2,5,3,7,2,1,3,2
2,2,5,4,6,3,1,1,1
2,2,4,4,6,1,1,1,2
2,2,5,2,6,1,2,4,1
2,2,5,2,6,1,4,1,2
2,2,5,2,6,2,4,1,2
2,2,5,2,6,1,4,3,1
2,2,5,2,6,1,1,1,1
2,2,9,3,6,1,1,1,2
5,2,5,3,6,1,1,2,2
2,2,1,3,5,3,1,2,1
2,2,5,2,6,3,1,2,2
2,2,1,2,5,2,1,2,1
2,2,1,2,6,3,1,4,1
2,2,5,2,5,3,1,2,2
2,2,4,2,7,2,1,3,1
2,2,5,3,7,1,4,1,2
5,2,9,2,7,2,1,4,1
2,2,5,3,7,3,1,1,2
2,2,5,2,6,3,1,2,2
2,2,5,2,7,2,1,3,1
2,2,4,4,7,3,1,3,2
2,2,5,3,6,1,1,1,2
2,2,5,4,6,2,1,3,1
2,2,4,3,6,1,1,1,2
2,2,5,2,6,1,3,1,1
2,2,5,3,6,1,1,2,2
2,2,8,2,5,3,1,1,1
2,2,8,2,6,1,1,3,1
2,2,1,2,7,1,1,1,2
2,2,5,2,6,3,1,2,2
2,2,5,2,6,3,1,3,2
2,2,1,2,5,2,2,1,2
2,2,5,2,6,1,1,3,1
4,2,8,2,6,3,1,2,2
2,2,1,2,6,2,1,3,2
2,2,5,3,7,1,2,3,2
2,2,5,2,6,2,3,1,2
2,2,5,2,7,1,1,1,2
2,2,5,3,6,3,1,3,2
2,2,5,2,7,2,1,1,1
2,2,5,3,5,3,1,4,2
2,2,1,2,7,1,1,1,2
2,2,5,2,7,2,2,3,2
4,2,1,2,7,2,1,1,2
4,1,5,2,5,3,1,2,1
2,1,8,2,6,3,1,3,2
4,1,5,3,6,2,4,3,2
5,1,6,2,7,2,1,1,1
2,1,5,2,7,2,1,1,1
2,1,5,3,7,1,1,1,2
2,1,5,2,5,3,1,2,2
4,1,7,2,6,2,2,1,1
4,1,5,2,5,3,1,2,1
4,1,5,2,6,3,1,4,1
2,1,5,2,7,1,1,1,2
2,1,7,2,7,1,1,2,2
5,1,5,2,6,2,1,1,2
2,1,5,2,6,3,1,2,2
2,1,1,2,6,2,1,1,2
2,1,8,2,7,1,2,1,2
2,1,5,2,6,3,1,2,2
2,1,5,3,5,1,1,2,2
2,1,8,2,7,2,1,1,2
2,1,5,2,7,2,2,1,2
2,1,7,2,6,2,1,2,2
2,1,5,2,6,1,1,3,2
4,1,5,2,7,1,1,5,1
2,1,1,2,6,3,1,2,2
2,1,4,4,7,2,1,3,2
4,1,5,2,6,2,1,3,2
2,1,8,3,7,1,1,3,1
2,1,5,2,6,1,2,3,2
2,1,5,2,7,1,1,1,2
2,1,1,2,6,2,2,5,2
4,1,5,2,7,2,1,1,2
2,1,1,2,7,1,1,1,2
2,1,5,3,7,1,4,1,2
2,1,7,2,7,1,1,3,2
2,1,8,3,5,3,1,2,1
2,1,9,4,7,2,1,1,2
4,1,1,2,6,3,1,1,2
5,1,5,2,6,3,1,2,2
2,1,7,2,7,1,1,7,2
5,1,5,2,6,3,3,2,2
4,1,4,2,6,2,1,2,1
2,1,5,3,7,1,1,1,2
2,1,1,2,5,3,1,3,2
2,1,7,2,6,2,1,5,2
2,1,7,3,7,1,4,1,2
2,1,8,2,6,3,1,3,2
2,1,6,2,7,1,1,1,2
4,1,8,3,5,1,2,3,1
4,1,5,2,5,3,1,2,1
4,1,5,2,5,3,1,3,2
2,1,7,2,6,1,2,3,1
2,1,8,2,6,3,1,3,1
2,1,8,4,7,2,1,2,2
2,1,5,2,6,1,1,1,1
2,1,1,2,7,1,1,1,2
2,1,5,4,7,2,3,1,1
2,1,7,2,6,1,1,3,2
2,1,7,2,7,1,1,1,2
2,1,5,2,6,1,2,1,2
2,1,8,3,6,3,2,3,2
2,1,8,2,7,1,1,1,2
5,1,7,2,6,1,4,1,2
2,1,1,2,7,1,1,3,2
2,1,5,2,7,2,1,1,2
4,1,5,2,6,3,1,2,1
2,1,6,2,6,3,1,3,2
2,1,5,2,6,3,1,2,2
4,1,5,2,7,3,1,1,2
2,1,8,3,6,3,2,1,2
2,1,1,2,6,1,1,1,2
2,1,1,2,7,2,4,2,2
2,1,1,2,6,2,1,3,2
2,1,5,3,5,3,1,2,1
5,1,4,3,7,1,3,3,1
4,1,1,2,5,1,1,2,2
2,1,8,2,7,2,1,3,2
5,1,4,3,7,2,1,3,2
5,1,5,2,6,2,1,1,2
5,1,9,2,7,2,1,1,2
2,1,7,2,6,3,2,7,2
4,1,8,2,6,1,1,1,1
5,1,5,4,7,2,1,1,2
2,1,7,2,5,3,1,3,2
4,1,5,2,6,2,1,1,2
5,1,5,3,6,1,1,1,2
2,1,4,4,7,2,1,1,2
2,1,5,3,7,1,4,1,2
2,1,9,2,7,1,1,5,2
5,1,5,2,6,3,1,2,1
5,1,9,4,7,1,1,1,2
4,1,5,2,6,2,1,2,1
2,1,8,3,6,2,1,1,2
4,1,4,2,7,1,2,1,1
2,1,4,2,6,1,1,1,2
5,1,5,2,7,1,1,5,2
2,1,1,3,6,1,1,2,2
2,1,7,2,6,1,1,3,2
2,1,5,2,7,1,3,1,2
2,1,5,3,6,1,1,1,2
5,1,6,3,6,2,1,3,2
2,1,5,3,6,1,1,2,2
2,1,8,3,7,1,1,3,2
5,1,5,2,7,2,1,1,1
5,1,5,3,6,3,2,1,2
2,1,7,3,6,3,1,3,2
4,1,8,2,7,1,1,3,2
5,1,5,2,7,1,4,2,2
5,1,5,2,7,1,4,1,2
5,1,8,2,5,2,1,2,2
4,1,1,4,7,3,1,1,2
2,1,1,2,7,1,1,1,2
2,1,5,2,7,1,1,4,1
2,1,5,3,7,1,4,1,2
2,1,4,2,6,2,1,1,2
2,1,5,2,7,2,1,1,2
2,1,1,2,6,2,1,1,2
2,1,5,2,7,1,3,4,2
2,1,5,2,7,1,3,1,2
2,1,5,4,7,1,2,7,2
2,1,4,3,6,2,4,1,1
2,1,5,2,7,1,1,3,2
4,1,4,2,7,1,1,5,2
4,1,5,2,6,2,5,1,2
5,1,5,2,7,1,1,1,2
4,1,9,2,7,2,1,2,2
2,1,5,2,7,1,1,3,2
2,1,7,3,7,1,1,5,2
2,1,8,2,7,2,1,2,2
4,1,5,2,6,3,1,1,2
4,1,5,2,7,2,1,1,2
2,1,5,2,6,2,1,2,1
2,1,5,2,6,3,1,4,2
2,1,5,2,7,2,1,2,2
2,1,5,3,7,1,1,3,1
2,1,8,2,6,2,1,3,2
2,1,5,2,6,3,1,1,1
2,1,1,3,6,3,1,1,2
2,1,8,2,6,3,1,5,2
2,1,1,2,7,2,1,3,2
4,1,2,2,7,1,1,1,2
2,1,5,4,6,1,1,4,2
2,1,5,4,7,2,4,3,2
2,1,5,3,6,3,1,2,2
4,1,7,3,6,3,2,1,2
2,1,5,2,6,2,2,3,1
2,1,1,2,5,1,1,2,2
2,1,5,4,6,2,3,1,2
2,1,4,2,6,3,1,3,2
6,1,5,2,7,1,2,1,2
4,1,7,2,7,1,1,1,2
2,1,5,2,6,1,1,1,2
2,1,5,2,6,2,1,1,2
2,1,8,2,7,1,4,1,1
2,1,5,2,6,3,1,2,2
5,1,5,2,7,1,1,2,2
4,1,1,2,7,1,3,1,2
2,1,8,2,6,2,1,1,2
2,1,5,3,7,1,1,2,2
4,1,7,2,6,2,1,2,1
2,1,9,4,7,3,1,3,2
2,1,5,3,6,1,1,4,2
2,1,5,4,7,3,1,2,2
4,1,5,4,7,2,1,1,2
5,1,5,2,6,2,1,1,2
2,1,8,2,7,1,1,1,2
2,1,4,4,7,1,1,3,2
2,1,4,2,7,1,2,1,2
2,1,8,2,6,3,1,4,2
2,1,5,2,7,1,1,3,2
2,1,8,2,6,1,1,1,2
4,1,5,2,6,2,1,1,2
2,1,5,2,7,3,1,3,2
4,1,8,2,7,1,2,2,1
2,1,5,3,7,1,3,1,2
2,1,8,3,7,2,1,2,1
2,1,5,3,7,1,1,1,2
2,1,5,3,6,2,1,1,2
2,1,5,2,7,2,1,1,2
2,1,5,3,7,1,3,1,2
4,1,5,2,7,1,3,1,2
4,1,5,3,7,1,1,1,2
2,1,1,2,6,2,1,3,2
4,1,1,2,7,2,2,4,1
2,1,1,2,6,2,1,2,2
4,1,5,2,6,3,2,2,2
2,1,5,3,6,1,1,3,1
2,1,5,3,7,1,3,1,2
2,1,5,2,7,1,1,1,2
2,1,2,2,7,1,4,4,2
2,1,5,2,6,2,1,3,2
5,1,1,2,5,1,1,2,2
4,1,7,2,7,2,3,1,1
2,1,4,4,6,3,1,5,2
4,1,8,2,7,1,1,3,2
5,1,5,3,7,1,1,3,2
2,1,5,3,7,1,3,4,2
2,1,4,2,6,1,1,3,2
2,1,9,3,6,3,1,3,2
2,1,5,2,6,3,1,2,2
4,1,5,2,7,3,1,2,2
2,1,8,2,7,1,1,1,2
2,1,5,2,7,1,3,2,2
2,1,5,2,7,1,1,1,2
2,1,5,2,6,3,1,2,2
2,1,8,3,6,3,2,3,2
4,1,8,2,7,1,1,1,2
2,1,5,2,6,2,1,4,2
2,1,5,2,7,1,1,1,2
5,1,2,2,6,2,1,3,1
2,1,7,4,7,1,2,5,2
2,1,5,2,7,1,1,2,1
4,1,8,3,6,3,3,3,2
2,1,5,4,7,3,1,2,2
4,1,5,2,7,1,1,1,2
2,1,6,2,6,2,1,3,2
2,1,8,4,5,3,1,4,1
5,1,5,2,6,3,1,1,2
2,1,5,3,5,2,1,2,2
2,1,5,3,5,3,2,2,1
2,1,5,2,6,1,1,3,1
5,1,5,2,7,1,3,4,2
2,1,5,3,7,1,3,2,2
2,1,5,2,6,2,1,4,2
2,1,5,2,7,3,1,1,2
5,1,5,2,6,3,1,3,2
2,1,8,2,6,2,1,3,2
2,1,5,4,7,3,2,2,2
2,1,5,2,6,1,3,5,2
2,1,5,4,7,1,1,1,2
2,1,5,2,6,3,1,2,2
5,1,8,2,7,1,3,1,2
2,1,5,2,6,3,2,3,2
2,1,5,2,7,2,1,1,2
2,1,5,2,6,3,1,1,2
2,1,5,3,7,1,1,1,2
2,2,1,3,5,2,1,2,2
2,1,5,2,7,1,1,7,1
2,1,5,3,6,1,1,2,2
4,1,5,2,7,1,3,1,2
2,1,9,2,7,2,1,1,2
2,1,8,2,6,2,1,1,2
4,1,1,2,6,3,1,2,2
2,1,1,2,6,2,1,2,2
2,1,7,2,7,2,1,1,2
5,1,5,2,7,1,1,1,2
2,1,7,3,6,2,1,3,2
2,1,5,4,6,3,1,1,2
2,1,5,2,6,2,1,1,2
5,1,5,2,7,1,1,1,2
2,1,8,4,7,1,4,1,2
2,1,5,2,5,1,4,1,2
2,1,5,2,7,1,4,3,2
2,1,8,2,7,1,1,1,2
2,1,5,3,5,1,1,2,2
2,1,5,2,7,1,1,1,2
2,1,8,2,7,1,1,3,2
5,1,4,3,7,1,1,3,2
2,1,5,3,6,1,1,5,2
2,1,9,2,6,2,1,1,2
5,1,9,2,7,2,1,1,2
2,1,5,2,6,3,1,1,2
2,1,8,3,7,2,1,2,1
2,1,5,2,6,3,4,3,1
2,1,5,2,7,2,1,3,2
2,1,7,3,6,3,1,2,1
5,1,5,2,6,1,1,1,2
4,1,5,2,6,2,4,1,2
2,1,5,3,7,3,4,1,2
2,1,5,2,6,1,1,3,1
4,1,8,3,7,2,3,2,1
5,1,8,2,6,1,3,5,2
4,1,5,2,7,2,2,1,2
5,1,5,2,7,1,4,1,2
2,1,8,3,6,3,4,2,2
2,1,5,4,7,2,2,3,2
2,1,5,2,6,2,4,3,2
4,1,5,2,6,1,4,1,2
4,1,5,2,6,2,4,5,2
2,1,9,2,7,1,1,1,2
2,1,7,2,6,1,1,5,1
2,1,6,4,7,2,1,3,2
4,1,5,2,6,1,1,1,2
4,1,5,2,6,1,4,2,1
2,1,8,2,6,1,3,2,2
5,1,2,2,7,1,1,1,2
2,1,5,2,6,3,1,2,2
2,1,2,3,6,2,1,3,1
2,1,2,3,7,1,1,2,1
5,1,4,2,6,2,1,1,2
5,1,5,2,7,1,4,4,2
5,1,5,2,7,1,4,1,2
2,1,1,2,5,3,2,1,2
2,1,8,2,7,1,1,1,2
2,1,8,4,7,3,1,1,2
2,1,5,2,6,3,1,2,2
2,1,1,2,5,3,1,1,2
2,1,1,2,6,3,1,3,2
2,1,5,3,6,3,1,3,1
1,2,8,4,7,2,1,3,1
1,2,9,4,6,2,1,1,1
1,2,1,3,5,2,1,1,1
1,2,1,2,5,3,1,1,2
1,2,5,3,5,2,1,2,2
1,1,4,4,7,1,1,1,2
4,2,1,2,7,2,1,1,2
2,2,1,2,7,2,1,1,2
1,2,1,2,6,2,1,4,1
1,2,5,2,5,2,1,1,1
2,2,5,2,7,2,1,1,2
1,2,5,3,5,3,1,2,2
1,2,5,4,5,3,1,2,1
1,2,7,2,6,1,1,1,1
2,2,5,2,7,1,2,1,2
2,2,8,3,6,2,2,3,1
1,2,1,3,5,2,1,3,1
1,2,5,4,6,2,1,2,1
2,1,5,2,7,2,2,1,2
1,2,1,4,6,3,1,2,1
2,2,1,2,7,1,1,1,2
1,2,1,2,6,3,1,2,1
2,2,1,2,7,1,1,1,2
2,2,1,2,7,2,1,1,2
1,2,8,3,7,1,4,1,1
2,2,1,2,7,2,1,1,2
1,2,5,4,5,1,1,7,1
2,2,5,2,7,3,1,3,1
1,2,1,4,6,3,1,3,1
1,2,1,4,7,2,1,3,1
1,2,1,2,5,3,1,2,1
1,2,1,2,5,3,1,2,1
4,2,4,2,7,2,1,1,2
4,2,4,4,7,2,1,3,2
2,2,5,2,7,2,1,2,2
1,2,1,3,7,1,1,3,1
2,2,4,4,7,3,1,1,1
1,2,1,4,7,2,1,1,1
1,2,5,4,6,3,1,3,1
2,2,1,2,7,1,2,1,2
1,1,1,4,7,1,1,1,2
1,1,4,4,7,1,1,7,1
1,1,7,2,5,1,1,1,2
1,1,8,4,7,2,1,5,1
4,1,9,2,7,1,1,1,2
2,1,4,4,7,2,1,3,1
1,1,8,2,7,1,1,5,1
1,1,8,4,7,1,1,3,1
2,1,7,2,7,2,1,1,2
1,1,8,2,7,2,1,1,2
2,1,4,2,7,1,2,3,2
1,1,5,2,7,1,1,2,2
1,1,5,4,6,1,1,4,1
1,1,8,4,5,3,1,1,1
1,1,5,4,5,1,1,4,1
4,1,4,2,7,2,1,1,2
1,1,5,4,5,3,1,1,2
1,1,5,2,7,2,1,1,1
2,1,5,2,6,2,1,3,1
2,1,7,2,7,2,1,1,2
1,1,1,2,5,3,1,4,1
1,1,1,2,5,2,1,4,1
2,1,1,2,7,2,1,1,2
1,1,5,3,5,3,1,1,1
2,1,5,2,7,2,2,1,1
1,1,6,4,7,2,1,1,2
1,1,4,4,6,3,1,7,1
2,1,5,2,6,2,1,3,1
1,1,7,4,7,1,1,3,1
1,1,5,2,5,1,1,4,2
1,1,1,2,6,2,1,2,1
1,1,1,2,7,2,1,2,1
1,1,1,4,6,1,1,3,1
2,1,8,2,7,1,1,3,2
1,1,5,4,5,3,1,2,2
1,1,8,2,5,2,1,3,1
1,1,5,4,6,2,1,2,1
2,1,1,2,7,1,1,1,2
1,1,5,4,5,1,1,4,1
1,1,7,3,5,3,1,1,1
2,1,1,2,7,2,2,1,2
1,1,7,2,7,1,1,7,1
1,1,5,4,6,2,1,7,1
1,1,5,4,7,1,1,1,1
1,1,7,4,7,2,1,3,1
1,1,5,4,5,2,1,4,1
4,1,1,2,7,1,2,1,2
1,1,7,4,7,2,1,2,1
1,1,1,4,6,3,1,3,1
1,1,1,4,7,2,1,3,1
2,1,9,2,7,2,2,1,2
1,1,2,4,5,2,1,2,1
1,1,5,4,7,2,1,1,1
1,1,5,4,7,2,1,3,1
1,1,5,4,7,2,1,2,2
4,1,5,4,7,3,1,1,2
1,1,1,4,6,3,1,1,2
2,1,1,2,7,2,1,1,2
4,2,5,4,7,2,1,4,1
4,2,1,2,7,2,1,4,1
4,2,5,3,7,2,1,2,1
2,2,5,2,7,3,1,1,1
2,2,5,2,7,3,1,3,1
4,1,8,2,7,2,1,1,2
1,1,1,4,7,2,1,1,2
4,1,5,2,7,1,1,2,1
2,2,1,3,5,1,1,1,2
2,2,1,3,7,1,4,4,2
2,2,1,3,5,1,1,3,2
2,2,8,2,5,1,2,1,2
4,2,1,2,7,1,1,3,2
4,2,1,3,7,1,1,3,2
2,2,1,2,5,2,1,3,2
2,2,1,3,5,1,1,3,2
2,2,1,2,5,3,1,3,2
4,2,1,2,5,1,2,1,2
2,2,1,3,5,3,1,3,2
2,2,8,2,7,1,1,1,2
2,2,1,3,5,2,1,1,2
2,2,8,4,7,1,1,3,2
2,2,1,2,7,1,1,3,2
2,2,1,2,5,1,1,1,2
5,2,1,2,5,1,1,2,2
2,2,1,2,5,1,2,1,2
2,2,1,2,5,1,1,2,2
2,2,8,2,5,1,5,1,2
2,2,1,3,5,1,1,2,2
2,2,1,2,5,1,1,3,2
2,2,1,2,5,1,1,1,2
4,2,1,2,5,1,1,3,2
5,2,1,2,5,2,1,3,2
2,2,1,2,5,1,1,1,2
2,2,1,2,7,1,1,1,2
2,2,2,2,7,1,1,3,2
2,2,8,2,7,1,1,4,2
2,2,1,2,7,1,1,3,2
4,2,1,2,5,1,1,3,2
2,1,1,2,7,1,1,1,2
5,1,1,2,7,1,1,1,2
2,1,8,2,7,1,1,3,2
2,1,1,2,5,3,1,1,2
2,1,1,2,5,1,1,2,2
4,1,1,2,7,2,1,1,2
2,1,1,2,7,1,1,1,2
4,1,1,2,5,1,2,1,2
5,1,1,2,7,1,1,3,2
2,1,8,2,5,1,1,1,2
2,1,1,2,5,1,1,1,2
2,1,1,2,7,1,1,2,2
2,1,1,4,5,1,1,3,2
2,1,1,2,5,1,1,3,2
4,1,1,2,5,2,5,1,2
2,1,1,2,5,1,4,1,2
4,1,8,2,5,2,4,2,2
2,1,1,2,7,1,1,3,2
2,1,5,4,7,1,1,1,2
4,1,8,2,7,1,2,1,2
2,1,8,2,5,2,1,3,2
4,1,1,2,5,2,1,1,2
2,1,5,2,7,1,1,3,2
2,1,1,2,5,2,1,1,2
2,1,1,2,7,1,1,1,2
4,1,8,2,5,1,1,2,2
4,1,8,2,5,1,1,1,2
2,1,1,2,7,1,1,1,2
2,1,2,2,5,2,1,1,2
2,1,2,2,7,2,1,3,2
2,1,1,2,5,1,1,1,2
2,1,1,2,7,1,4,3,2
2,1,1,4,5,1,1,3,2
2,1,1,2,7,1,2,1,2
2,1,1,2,7,1,1,3,2
4,1,1,2,5,1,1,2,2
5,1,1,2,7,1,1,1,2
2,1,8,2,5,1,1,1,2
4,1,5,2,7,2,1,1,2
2,1,1,2,5,1,1,3,2
2,1,1,2,7,2,1,3,2
2,2,8,2,7,3,1,4,1
2,2,5,2,7,3,1,3,2
2,2,5,2,7,2,1,1,2
1,2,1,4,7,1,1,1,2
4,2,8,2,7,2,1,1,2
2,2,5,2,7,2,1,3,2
4,2,2,2,7,3,1,7,2
1,2,1,4,5,3,1,1,1
2,2,8,2,7,3,1,3,2
2,2,8,2,7,1,1,3,2
2,2,1,2,7,2,3,4,1
2,2,8,2,7,3,4,2,1
2,2,9,2,7,2,1,3,2
5,2,5,2,7,3,3,2,2
4,2,1,2,7,3,1,3,1
2,2,1,2,7,3,1,1,2
5,2,1,2,7,2,1,1,2
2,2,8,2,7,2,1,3,2
5,2,5,2,7,3,1,2,2
2,2,1,2,7,2,2,3,2
2,2,1,2,7,2,1,3,1
2,2,7,4,7,3,2,2,1
2,2,8,2,7,1,4,1,2
2,2,5,2,7,3,1,3,1
2,2,5,2,7,1,1,1,2
2,2,8,2,7,2,1,4,2
5,2,8,2,7,2,1,7,2
4,2,1,2,7,2,1,7,1
4,2,8,2,7,3,2,3,2
4,2,1,2,7,2,1,3,2
4,2,2,2,7,3,1,3,2
2,2,7,4,5,3,1,4,1
2,2,1,2,7,3,1,3,1
5,2,8,2,7,3,1,2,2
5,2,8,2,7,2,1,1,2
5,2,8,2,7,3,1,3,1
2,2,8,2,7,2,2,3,1
1,2,1,4,5,3,1,1,1
1,2,8,4,5,1,1,1,2
1,2,8,4,7,1,1,2,2
2,2,5,2,7,3,1,3,1
2,2,5,2,7,2,1,3,2
2,2,8,4,7,2,1,3,2
5,2,8,2,7,3,1,4,1
2,2,8,2,7,3,1,3,1
4,2,1,2,7,3,4,3,1
2,2,5,4,7,3,1,1,2
5,2,1,2,7,3,4,1,2
2,2,1,4,5,2,1,2,2
1,2,1,4,5,3,1,3,1
4,2,2,2,7,2,1,3,2
4,2,5,2,7,3,1,3,1
2,2,8,2,7,2,1,1,2
1,2,1,4,5,2,1,1,2
2,2,1,2,7,2,1,3,2
2,2,1,2,7,1,1,1,2
1,2,5,2,5,2,1,1,2
2,2,8,2,7,3,1,3,2
2,2,8,2,7,2,2,4,1
2,2,1,2,7,3,1,3,1
2,2,8,2,7,2,2,4,2
2,2,8,3,7,1,1,1,2
5,2,1,2,7,3,1,7,1
2,2,1,2,7,1,1,1,2
2,2,1,2,7,1,1,7,1
2,2,5,2,7,3,1,4,1
2,2,8,2,7,3,1,2,2
2,2,8,2,7,2,1,2,1
6,2,1,2,7,2,1,3,1
2,2,2,2,7,2,1,2,2
5,2,1,2,7,3,1,2,2
2,2,1,2,7,3,1,3,1
1,2,8,4,5,3,1,1,2
2,2,1,2,7,3,1,1,2
4,2,1,2,7,3,1,3,2
1,2,1,2,5,1,1,1,2
2,2,5,2,7,3,1,2,1
2,1,5,2,7,3,1,3,1
4,1,8,4,7,2,1,1,2
4,1,5,2,7,2,1,2,1
2,1,1,4,7,1,1,1,2
2,1,5,2,7,2,2,2,1
4,1,1,2,7,3,3,3,2
2,1,5,2,7,1,1,1,2
2,1,2,2,7,3,1,2,2
2,1,1,2,7,3,1,3,2
5,1,1,2,7,3,1,3,2
2,1,5,2,7,2,1,1,2
2,1,1,2,7,2,1,1,2
6,1,7,2,7,1,1,3,1
4,1,7,2,7,3,1,1,2
5,1,8,4,7,2,3,2,2
5,1,5,2,7,2,1,3,2
4,1,1,2,7,1,1,2,2
2,1,8,2,7,1,1,3,1
4,1,8,2,7,3,1,1,2
2,1,1,2,7,3,1,3,1
2,1,1,2,7,3,1,3,2
5,1,1,2,7,1,1,3,1
2,1,1,4,7,3,1,3,2
2,1,8,3,7,1,1,1,2
2,1,1,3,7,2,1,4,1
4,1,5,2,7,3,1,3,1
2,1,5,2,7,3,1,7,1
2,1,8,2,7,1,1,1,2
2,1,1,2,7,3,1,2,2
1,1,1,4,5,2,1,1,1
6,1,1,4,7,3,1,1,1
4,1,1,2,7,3,1,3,2
5,1,1,2,7,2,1,1,2
1,1,1,4,5,3,1,3,1
2,1,5,2,7,1,2,1,1
1,1,1,4,5,2,1,1,2
5,1,1,2,7,2,1,4,2
2,1,1,2,7,3,1,2,1
5,1,5,4,7,1,1,4,1
4,1,1,2,7,3,2,1,2
4,1,1,4,7,2,1,1,1
5,1,1,2,7,2,1,5,1
1,1,1,4,5,1,1,3,1
2,1,5,3,7,2,1,3,2
2,1,1,2,7,2,1,3,2
2,1,5,2,7,3,1,2,1
2,1,5,2,7,3,1,7,2
2,1,5,2,7,3,1,2,1
2,1,2,4,7,3,1,1,1
2,1,1,2,7,3,1,1,1
4,1,5,2,7,1,4,3,1
2,1,8,2,7,1,1,1,2
2,1,1,2,7,1,1,2,1
4,1,8,2,7,2,1,1,1
2,1,8,4,7,2,1,3,2
2,1,1,2,7,1,1,1,2
2,1,1,2,7,2,1,7,2
2,1,7,2,7,1,1,1,1
5,1,8,4,7,3,1,1,2
1,1,5,4,5,3,1,5,1
5,1,5,2,7,3,1,1,2
2,1,1,4,7,2,1,3,2
5,1,1,2,7,2,1,1,2
2,1,8,2,7,2,1,3,1
2,1,1,2,7,3,1,4,2
2,1,8,2,7,3,1,2,1
1,1,8,4,5,1,2,1,1
4,1,1,2,7,1,4,1,2
1,1,1,2,5,2,1,4,2
4,1,1,2,7,2,1,1,2
1,1,5,4,5,3,1,3,2
1,1,1,4,5,3,1,2,1
2,1,5,2,7,3,3,1,1
2,1,8,2,7,3,1,3,2
4,1,5,2,7,2,1,2,1
5,1,1,2,7,1,3,3,1
2,1,1,4,7,3,1,3,2
2,1,8,2,7,3,1,3,1
5,1,1,2,7,2,1,3,1
2,1,2,2,7,2,1,3,2
5,1,8,2,7,2,1,2,1
4,1,8,4,7,2,1,1,2
1,1,8,4,5,3,1,4,1
2,1,1,2,7,3,1,3,1
5,1,7,2,7,1,1,1,2
1,1,1,4,5,2,1,1,2
4,1,1,2,7,1,1,1,2
2,1,5,2,7,2,1,1,2
5,1,5,2,7,2,1,3,2
4,1,5,2,7,3,2,1,1
5,1,5,2,7,3,1,1,2
2,1,5,2,7,3,1,3,2
4,1,8,2,7,2,1,1,2
2,1,1,2,7,3,1,4,1
2,1,8,2,7,2,4,3,2
2,1,8,2,7,3,1,2,2
5,1,8,2,7,2,1,2,1
2,1,1,2,7,2,1,3,1
2,1,8,4,7,3,2,1,2
2,1,8,2,7,3,1,7,2
5,1,1,2,7,3,1,3,1
1,1,8,4,7,2,1,1,2
5,1,5,2,7,2,1,1,2
4,1,5,4,7,1,1,1,1
2,1,5,2,7,3,1,2,1
4,1,1,2,7,1,2,1,1
1,1,8,2,7,1,1,1,1
2,1,7,2,7,3,1,3,2
4,1,5,2,7,3,1,2,1
2,1,1,4,7,1,4,3,2
2,1,1,2,7,1,4,2,2
4,1,5,2,7,3,1,1,2
5,1,1,2,7,2,1,3,2
4,1,5,2,7,3,1,3,2
5,1,8,2,7,3,1,1,2
5,1,5,2,7,2,1,3,1
2,1,5,2,7,2,1,1,2
5,1,4,2,7,1,1,1,2
1,1,5,2,7,2,1,2,1
2,1,5,3,7,2,3,2,2
2,1,5,3,7,1,3,1,2
2,1,5,2,7,1,1,1,2
4,1,5,3,7,1,4,1,2
5,1,5,2,7,1,1,1,2
2,1,5,2,7,2,3,1,2
2,1,5,2,7,1,3,1,2
2,2,8,2,6,1,4,2,1
2,2,1,2,7,1,1,4,2
2,2,5,2,7,2,1,1,1
2,2,5,2,6,1,3,6,1
5,2,8,2,7,2,1,1,2
2,2,5,3,5,3,1,2,2
2,2,5,4,6,3,1,3,2
2,2,5,2,6,3,1,1,2
2,2,5,2,7,1,3,1,2
2,2,5,3,6,1,1,2,2
2,2,5,2,6,2,5,3,1
4,2,5,3,7,1,1,1,2
2,2,5,2,6,1,1,3,1
2,2,1,4,5,3,1,2,1
2,2,1,4,7,1,1,2,2
2,2,1,2,7,2,1,3,2
2,2,5,2,6,2,4,3,1
2,2,5,2,7,1,4,1,2
2,2,5,2,7,1,1,3,2
2,2,5,2,7,1,3,1,2
2,2,5,2,6,1,1,3,1
2,2,5,2,6,1,4,3,1
2,2,5,2,7,2,4,4,1
2,2,1,3,6,3,4,4,2
2,2,5,2,7,1,1,1,2
2,2,5,2,7,1,4,1,2
2,2,5,4,7,2,3,1,1
4,2,5,2,7,2,4,3,2
2,2,5,4,7,1,1,3,1
4,2,8,2,7,2,1,1,2
2,2,8,2,7,3,1,1,1
2,2,8,2,7,1,1,3,1
1,2,8,2,6,1,4,3,1
2,2,5,2,5,3,1,3,1
2,2,1,2,6,2,1,2,2
4,2,8,3,7,1,4,1,2
5,2,5,3,7,1,1,3,2
2,2,5,2,6,3,1,2,1
2,2,5,2,6,1,1,3,1
2,2,8,2,6,1,2,3,2
2,2,8,2,6,1,1,1,1
2,2,7,2,6,1,1,5,2
4,2,1,2,7,1,2,1,2
4,2,8,2,6,1,1,1,2
4,2,5,2,7,1,1,2,2
2,2,8,4,7,1,1,2,2
2,2,5,2,6,3,3,2,1
2,2,5,2,7,2,4,1,2
2,2,5,2,6,1,4,4,2
2,2,5,2,7,2,1,1,2
2,2,5,3,5,3,1,3,2
2,2,5,2,7,1,1,1,2
2,2,5,2,7,3,1,3,1
2,2,8,2,7,1,1,1,2
2,2,5,4,6,2,1,3,1
2,2,5,2,7,1,4,3,1
5,2,1,4,6,3,1,3,1
1,2,5,2,6,2,3,3,1
4,2,5,2,7,2,1,6,2
4,2,5,2,6,3,5,1,2
2,2,1,4,7,1,1,1,2
2,2,1,4,7,2,1,1,2
2,2,5,2,6,1,4,1,1
2,2,5,2,6,1,4,1,1
2,2,8,4,7,3,4,1,2
2,2,5,2,7,1,4,1,1
2,2,5,2,5,3,1,2,1
2,2,1,2,6,2,1,3,2
2,2,5,2,5,3,1,2,1
2,2,8,3,6,1,1,1,1
2,2,8,2,6,1,2,1,2
2,2,1,2,6,1,1,3,1
2,2,5,2,6,2,1,1,1
2,2,5,3,7,1,3,1,1
5,2,5,2,7,1,4,1,2
2,2,5,2,6,3,4,2,1
4,2,5,3,7,1,1,1,2
2,2,5,2,5,3,4,3,1
2,2,5,3,7,1,1,1,2
2,2,5,2,6,1,4,4,1
5,2,5,2,7,2,1,4,1
2,2,1,3,5,3,1,3,1
2,2,8,3,7,1,3,1,1
2,2,5,3,6,2,2,6,2
4,2,5,2,6,1,4,3,1
2,2,9,2,7,1,1,3,2
4,2,5,2,6,1,3,6,2
2,2,5,2,6,2,4,1,2
2,2,1,4,7,2,1,2,2
5,2,1,2,7,1,5,3,1
2,2,5,3,6,2,4,3,2
2,2,5,4,6,2,1,4,2
2,2,7,2,6,3,1,3,1
2,2,5,2,5,2,1,2,1
2,2,5,2,6,1,1,1,1
4,2,5,3,6,2,1,3,1
5,2,5,3,7,1,3,1,1
2,2,8,2,7,1,1,2,1
2,2,2,3,6,2,1,4,1
2,2,2,3,7,1,4,1,1
5,2,5,2,7,1,2,5,1
2,2,1,4,7,1,1,2,2
2,2,5,2,6,1,1,1,1
5,2,5,2,7,1,2,3,2
2,2,5,2,6,1,1,4,1
2,2,5,2,6,1,1,3,1
2,2,1,2,7,2,1,2,2
2,1,8,2,7,1,1,1,1
2,1,5,4,7,3,1,3,2
2,1,8,2,7,1,1,1,2
5,1,1,2,7,1,1,1,2
5,1,5,2,6,1,3,1,2
2,1,5,2,7,1,1,3,2
2,1,5,2,7,1,1,1,1
2,1,8,3,7,2,3,3,1
2,1,2,2,7,1,1,3,2
2,1,8,2,7,1,2,3,2
2,1,5,4,7,1,3,1,1
4,1,5,3,7,2,1,3,1
5,1,8,2,6,1,4,1,1
2,1,8,4,7,1,4,2,2
2,1,5,3,7,1,1,1,2
2,1,8,3,6,1,1,1,1
2,1,8,2,7,2,1,1,2
1,1,8,4,7,1,1,6,1
2,1,5,2,7,2,4,3,1
2,1,5,2,7,1,1,2,2
2,1,5,2,7,1,4,3,2
2,1,7,3,7,1,4,1,1
1,1,5,4,7,1,1,2,1
2,1,5,2,7,1,1,1,2
2,1,5,2,7,3,1,3,2
2,1,1,2,7,1,1,3,2
5,1,5,2,7,2,1,1,1
6,1,8,2,7,1,1,6,1
2,1,5,2,6,1,1,3,2
4,1,5,2,7,1,1,1,2
5,1,5,2,7,1,1,1,1
1,1,8,4,6,1,1,5,1
2,1,5,2,7,1,1,1,2
2,1,1,4,7,1,1,2,2
2,1,1,2,7,2,1,1,2
2,1,5,2,7,3,4,3,2
2,1,5,2,7,1,1,1,2
2,1,5,3,7,3,1,2,2
2,1,7,4,6,1,2,6,1
4,1,5,3,6,3,1,3,2
2,1,5,2,7,1,1,3,1
2,1,5,2,6,3,1,3,2
2,1,1,4,7,1,4,1,2
2,1,5,4,7,1,1,1,2
2,1,5,2,7,2,1,3,1
2,1,8,2,7,1,4,4,2
2,1,5,3,7,1,4,1,1
2,1,1,2,7,1,1,3,1
2,1,5,2,7,1,1,1,2
4,1,1,2,7,1,4,1,2
2,1,1,3,7,1,4,1,1
4,1,5,3,7,2,3,1,1
2,1,5,2,6,2,1,1,1
2,1,5,2,7,1,4,5,1
2,1,5,2,7,1,1,1,1
2,1,5,4,7,3,1,5,1
2,1,1,2,7,1,1,1,2
2,1,1,2,7,2,1,2,2
2,1,5,2,7,3,1,1,2
2,1,1,4,7,3,1,1,1
2,1,5,2,7,2,1,3,2
2,1,8,2,6,3,1,3,2
2,1,8,4,7,3,1,7,2
2,1,8,2,7,1,1,2,2
2,1,2,2,7,2,1,5,2
2,1,5,3,7,1,1,1,1
5,1,1,2,7,3,1,3,1
2,1,5,2,7,2,1,1,2
2,1,5,2,7,1,1,3,2
2,1,5,2,7,1,1,1,1
4,1,5,3,6,1,3,2,2
2,1,8,2,6,1,1,3,1
2,1,5,2,7,1,1,2,2
2,1,8,2,6,1,1,1,1
2,1,1,2,7,1,4,1,1
2,1,1,2,7,1,1,1,2
2,1,1,2,7,3,4,2,2
2,1,7,4,6,1,4,4,2
5,1,8,2,7,1,4,3,2
2,1,5,4,7,1,1,3,2
2,1,5,3,7,3,1,1,2
4,1,5,3,7,1,3,3,1
4,1,5,2,7,1,3,3,1
2,1,8,2,7,2,1,1,2
2,1,5,3,6,1,1,3,2
2,1,1,4,7,2,1,1,1
2,1,5,2,6,1,2,1,2
5,1,5,2,7,2,5,1,1
2,1,5,2,6,3,3,3,1
2,1,1,4,7,2,4,2,2
2,1,8,4,7,2,2,3,2
2,1,2,2,7,1,1,1,2
2,1,5,2,6,2,1,1,2
2,1,5,2,7,1,1,2,1
2,1,8,4,7,1,1,1,1
2,1,5,2,6,1,3,5,1
2,1,5,3,7,1,4,3,2
2,1,8,2,7,1,1,2,1
2,1,5,2,7,1,1,3,2
2,1,8,2,7,1,2,1,2
2,1,5,2,6,3,4,3,2
2,1,5,2,6,2,2,5,1
2,1,5,2,6,1,1,3,2
2,1,5,2,7,1,4,3,1
5,1,5,2,6,3,1,2,2
5,1,5,2,7,2,3,1,2
1,1,8,3,6,1,1,3,2
4,1,5,2,6,2,1,1,2
2,1,5,3,7,1,1,3,2
2,1,8,2,7,1,1,3,1
2,1,5,2,7,1,1,2,2
2,1,5,4,6,3,1,3,2
2,1,1,4,7,1,1,2,1
4,1,5,2,7,2,2,3,2
2,1,5,4,7,1,1,1,2
2,1,5,2,7,1,1,1,2
2,1,5,2,6,2,1,4,2
2,1,8,3,6,1,3,2,1
4,1,4,3,6,1,1,3,2
2,1,1,2,7,1,1,1,2
2,1,5,3,7,3,1,1,2
2,1,5,2,7,2,1,1,2
2,1,5,4,7,1,1,2,2
2,1,1,4,7,2,1,1,2
2,1,5,2,7,1,1,1,1
1,1,7,4,7,1,1,1,2
1,1,8,4,7,1,1,2,2
2,1,8,4,7,1,1,1,2
2,1,5,2,7,1,1,3,2
2,1,1,4,7,3,4,1,1
2,1,8,2,6,1,2,3,2
2,1,4,4,7,1,1,3,2
2,1,5,2,7,2,1,1,2
2,1,5,4,7,1,1,1,1
2,1,5,2,7,1,4,1,1
2,1,5,2,6,1,1,1,1
2,1,8,2,6,1,1,7,2
5,1,5,2,7,1,4,1,2
2,1,4,2,7,1,1,3,1
2,1,1,2,7,1,1,1,2
2,1,5,3,7,1,1,5,2
2,1,5,2,6,2,1,4,2
4,1,5,2,7,1,4,7,2
5,1,5,3,7,1,1,3,1
2,1,5,2,6,3,4,2,2
2,1,7,3,6,2,1,3,2
2,1,5,2,7,1,1,1,2
2,1,5,2,7,1,1,1,1
4,1,5,2,7,2,1,1,2
2,1,7,2,7,3,1,1,2
2,1,5,2,6,1,2,3,1
2,1,5,2,6,1,1,1,2
2,1,5,2,7,1,4,3,2
2,1,1,2,7,1,1,5,2
5,1,5,2,7,1,1,1,2
4,2,1,2,7,2,1,6,1
2,2,1,2,7,1,1,1,1
2,2,5,3,7,1,1,1,1
4,2,1,2,7,2,1,7,1
4,2,8,2,7,2,1,3,1
2,2,8,2,7,2,1,3,1
2,2,2,2,7,2,1,7,2
2,2,8,4,7,1,1,1,2
5,2,1,2,7,2,1,2,1
5,2,1,2,7,2,1,3,2
2,2,8,2,7,2,1,2,1
2,2,8,2,7,1,1,7,2
2,2,1,2,7,2,1,7,1
2,1,5,2,7,1,2,1,2
4,1,1,2,7,2,1,3,1
4,1,1,2,7,2,3,3,1
2,1,5,2,7,1,2,1,2
4,1,1,2,6,3,1,1,1
2,1,5,3,7,3,1,2,1
2,1,8,2,7,1,1,1,2
2,1,8,2,7,2,1,1,2
2,1,8,2,7,2,1,1,1
2,1,8,2,7,2,1,3,2
5,1,8,2,7,2,1,3,1
2,1,1,2,7,2,1,3,1
5,1,5,2,7,2,2,1,1
6,1,5,2,7,3,1,3,2
2,1,1,2,7,1,1,1,2
2,2,1,2,7,2,1,1,2
2,2,8,2,7,3,1,3,1
2,2,5,2,7,3,1,3,2
2,2,5,4,7,3,1,3,2
1,2,8,3,7,1,4,4,2
2,2,5,2,7,2,1,1,2
2,2,5,2,7,2,1,1,1
2,2,5,2,7,2,1,1,2
2,2,5,2,7,2,1,1,2
2,2,5,2,7,3,1,3,1
2,2,5,2,7,3,1,3,1
5,1,5,2,7,3,1,1,1
4,1,5,4,7,2,1,2,1
2,1,5,2,7,2,1,1,2
4,1,5,2,7,3,1,3,1
4,1,5,2,7,2,3,4,1
2,1,5,2,7,1,1,3,2
2,1,5,2,7,1,4,7,2
5,1,5,2,7,3,1,1,2
2,1,5,3,7,3,5,4,1
5,1,5,2,7,3,1,1,2
5,1,8,2,7,2,1,4,2
2,1,5,2,7,3,1,1,2
2,1,5,2,7,2,1,1,2
2,1,5,2,7,3,1,3,2
2,1,8,3,7,1,4,3,1
2,1,5,2,7,2,1,1,2
5,2,1,2,6,2,4,2,2
5,2,1,2,2,3,1,1,2
1,2,1,4,5,3,1,2,2
4,2,8,2,2,3,1,1,2
5,2,1,2,2,3,1,1,2
5,2,1,2,2,3,1,1,2
2,2,5,2,5,3,3,1,2
2,2,5,2,5,2,1,1,1
4,2,1,2,2,3,4,2,2
4,2,1,2,2,3,4,1,2
4,2,1,2,2,3,1,1,2
5,2,1,2,2,3,1,1,2
4,2,1,2,2,3,1,3,2
4,2,1,2,2,3,1,1,2
2,2,1,2,2,3,1,1,1
2,2,1,2,2,3,1,1,1
2,2,1,2,2,3,1,1,1
2,2,1,2,5,2,1,1,1
4,2,1,2,2,3,1,2,1
2,2,5,3,6,3,2,2,1
5,2,8,2,2,3,1,1,2
5,2,8,2,2,3,1,1,2
1,2,1,4,5,3,1,3,1
1,2,1,4,5,3,1,2,2
2,2,1,2,2,2,1,2,1
6,2,1,2,2,2,1,1,2
2,2,8,2,6,1,1,1,2
2,2,8,2,2,3,2,1,2
2,2,8,2,2,3,1,1,2
2,2,8,2,2,3,1,1,2
5,2,1,2,2,3,1,1,1
2,2,8,2,6,2,1,1,2
2,2,1,2,5,2,1,3,1
2,2,1,2,2,3,1,1,1
2,2,1,2,2,3,1,1,1
2,2,1,2,2,3,4,1,1
2,2,1,2,2,2,2,1,1
2,2,8,2,5,1,1,1,1
4,2,5,2,2,3,4,1,1
2,2,1,2,5,1,4,1,2
2,2,1,2,6,1,2,5,1
5,2,1,2,2,3,1,1,2
5,2,1,2,2,3,1,1,2
5,2,1,2,2,3,1,1,2
5,2,1,2,2,3,1,4,2
4,2,1,2,5,3,3,1,1
2,2,1,2,7,3,1,1,2
2,2,1,2,2,3,1,1,2
2,2,1,2,2,3,3,1,1
2,2,1,2,2,3,1,1,1
2,2,1,2,2,3,1,1,1
2,2,1,2,2,3,1,1,1
2,2,1,2,5,3,3,1,1
5,2,1,2,2,3,1,1,2
4,2,1,2,2,3,1,1,2
4,2,1,2,2,3,1,1,2
4,2,1,2,2,3,1,1,2
4,2,1,2,2,3,1,1,2
4,2,1,2,2,3,2,1,2
4,2,1,2,2,3,1,2,2
2,2,1,2,6,3,3,1,2
5,2,1,2,2,3,1,2,1
2,2,1,2,2,3,1,1,2
2,2,1,2,7,2,1,1,2
2,2,8,2,5,2,1,1,2
4,2,5,2,2,3,1,1,1
5,2,5,2,2,3,1,1,1
5,2,1,2,2,3,1,1,1
2,2,1,4,6,1,3,1,2
4,2,1,2,2,3,1,1,2
2,2,5,2,6,1,1,3,2
4,2,1,2,2,3,1,1,1
4,2,1,2,2,3,1,1,1
2,2,1,2,6,1,4,1,1
2,2,1,2,6,1,2,1,1
2,2,8,2,2,3,2,1,1
5,2,1,2,2,3,1,1,1
5,2,1,2,2,3,2,1,2
4,2,1,2,2,3,1,1,2
2,2,1,3,5,3,4,1,1
2,2,1,3,5,3,3,1,1
4,2,1,2,7,3,4,1,2
5,2,1,2,2,3,1,1,1
5,2,1,2,2,3,1,1,1
4,2,1,2,2,3,1,1,1
4,2,1,2,2,3,1,1,1
4,2,1,2,2,3,1,1,2
4,2,1,2,2,3,1,1,2
4,2,1,2,2,3,1,1,2
4,2,1,2,2,3,1,1,2
4,2,1,2,2,3,1,1,2
4,2,1,2,2,3,1,1,2
4,2,1,2,2,3,1,1,1
4,2,4,3,6,2,1,1,1
2,2,5,2,5,3,1,2,2
5,2,1,2,2,3,1,1,2
1,2,1,2,5,3,1,2,2
1,2,1,2,5,2,1,2,2
4,2,5,2,5,2,2,2,1
4,2,1,2,2,3,1,1,1
4,2,1,2,2,2,1,1,1
4,2,1,2,2,2,1,2,1
4,2,1,2,2,3,1,1,2
4,2,1,2,2,3,1,1,2
4,2,1,2,2,3,1,1,2
4,2,1,2,2,3,1,1,1
4,2,1,2,2,3,1,1,2
4,2,1,2,2,3,2,1,1
4,2,1,2,5,3,1,1,1
2,2,1,2,2,3,1,1,2
2,2,1,2,2,3,1,2,2
2,2,1,2,2,3,1,1,2
2,2,1,2,2,3,1,1,2
2,2,5,2,2,3,1,1,2
4,2,1,2,2,3,1,1,1
4,2,1,2,2,3,1,1,1
4,2,1,2,2,3,1,1,2
4,2,1,2,2,3,1,1,1
2,2,5,3,6,1,1,3,2
2,2,5,3,5,3,4,2,2
2,2,5,3,6,2,1,1,1
2,2,8,2,7,3,4,1,2
2,2,5,4,5,2,1,1,2
2,2,5,3,5,2,3,3,1
2,2,5,3,6,2,3,2,1
5,2,1,2,2,3,1,1,2
5,2,1,2,2,3,2,1,2
5,2,1,2,2,3,1,1,2
5,2,1,2,2,3,1,1,2
4,2,5,2,2,3,1,1,2
2,2,1,2,7,3,4,1,1
2,2,5,3,7,1,1,3,2
5,2,1,2,2,3,1,1,2
2,2,1,2,2,3,1,2,2
2,2,1,2,2,3,1,1,2
2,2,1,2,5,3,4,1,1
2,2,1,2,5,2,3,1,1
2,2,1,2,2,3,1,1,1
2,2,1,2,2,2,1,4,2
1,2,1,2,5,1,1,1,2
5,2,1,2,2,3,1,1,1
2,2,1,3,5,3,2,1,2
2,2,1,3,6,3,2,2,1
2,2,5,2,2,3,1,1,2
2,2,2,2,7,3,1,2,1
2,2,5,2,7,3,1,3,2
2,2,1,2,2,3,4,2,2
2,2,5,2,2,3,1,1,1
5,2,1,2,2,3,1,1,2
5,2,1,2,2,2,1,1,2
5,2,1,2,2,3,1,1,1
5,2,1,2,2,3,1,1,2
5,2,1,2,2,3,1,1,2
5,2,1,2,2,3,3,1,1
2,2,5,2,5,3,4,1,1
2,2,1,2,2,3,1,2,2
1,2,1,4,5,1,1,1,1
2,2,1,2,6,2,2,1,2
2,2,1,2,7,2,2,3,2
5,2,5,2,2,3,1,1,1
4,2,1,2,2,3,1,1,2
2,2,1,2,2,3,1,1,2
2,2,1,2,2,3,1,1,1
2,2,1,2,2,3,1,1,1
2,2,1,2,2,3,1,1,1
2,2,1,2,5,2,1,1,2
2,2,4,2,5,3,2,2,1
2,2,4,2,5,2,3,1,1
2,2,1,2,2,2,1,1,2
4,2,8,2,2,2,4,2,2
2,2,5,2,5,3,2,1,1
2,2,7,3,5,3,3,3,1
2,2,1,2,2,3,1,1,2
2,2,1,2,2,3,1,1,2
2,2,1,2,2,3,1,1,2
2,2,1,2,2,3,1,1,2
2,2,1,2,2,3,1,2,2
4,2,1,2,2,3,1,1,2
4,2,1,2,2,3,1,1,2
4,2,1,2,2,3,1,1,2
4,2,1,2,2,3,1,1,2
4,2,1,2,2,3,1,1,2
4,2,1,2,2,3,1,1,2
4,2,2,2,2,3,1,1,2
4,2,2,2,2,3,1,1,2
4,2,2,2,2,3,1,1,2
4,2,2,2,2,3,3,1,2
4,2,2,2,2,2,1,1,2
4,2,2,2,2,3,1,1,2
4,2,2,2,2,3,1,1,1
4,2,2,2,2,3,2,2,2
2,2,1,2,7,1,1,1,2
2,2,1,2,5,2,1,1,1
1,2,1,4,5,3,1,2,2
2,2,5,2,2,3,3,1,1
2,2,1,2,5,1,2,1,2
1,2,1,4,5,3,1,2,2
5,2,1,2,2,3,1,2,1
5,2,1,2,2,3,1,1,1
5,2,1,2,2,3,1,1,2
5,2,1,2,2,3,1,1,1
5,2,1,2,2,3,1,1,2
5,2,1,2,2,3,1,1,2
1,2,5,3,5,1,4,3,2
2,2,1,3,5,1,3,2,1
2,2,1,2,5,2,2,1,1
2,2,1,2,7,2,1,3,2
2,2,1,2,6,2,3,3,2
2,2,1,3,5,3,1,1,1
4,2,8,2,5,2,1,1,1
4,2,1,2,2,3,1,1,1
2,2,5,3,6,3,1,1,1
1,2,1,3,5,1,1,5,1
5,2,1,2,2,3,1,1,2
2,2,5,3,5,2,4,1,2
2,2,1,2,2,3,1,1,2
5,2,1,2,2,3,1,1,2
1,2,1,4,5,1,1,1,2
2,2,5,2,2,3,1,1,2
2,2,1,2,2,3,2,1,1
2,2,1,2,6,2,1,1,2
4,2,1,2,2,3,2,1,2
2,2,1,2,5,3,1,1,1
2,2,7,2,2,3,2,4,1
2,2,1,2,2,3,1,1,2
2,2,1,2,2,3,1,1,2
2,2,1,2,2,3,1,1,2
2,2,1,2,2,3,1,1,1
2,2,1,2,2,3,1,1,2
2,2,1,3,5,2,1,1,2
5,2,1,2,2,3,1,1,1
5,2,1,2,2,3,1,1,2
5,2,1,2,2,3,1,1,1
5,2,1,2,2,3,1,1,1
5,2,1,2,5,3,1,1,1
2,2,1,3,5,3,3,1,1
2,2,1,3,5,3,2,1,1
2,2,1,2,5,2,1,1,2
2,2,1,2,5,3,1,1,2
5,2,1,2,2,3,1,1,1
2,2,8,2,5,1,1,1,1
2,2,1,3,6,1,4,1,2
2,2,1,2,2,3,1,1,2
2,2,1,2,2,3,1,1,1
2,2,1,2,2,3,1,1,1
5,2,1,2,2,3,1,1,2
5,2,1,2,2,3,1,1,2
5,2,1,2,2,3,1,2,2
5,2,1,2,2,3,1,1,2
2,2,1,2,2,3,1,2,1
2,2,1,2,2,3,1,1,1
2,2,1,2,2,3,1,1,1
2,2,1,2,2,3,1,2,2
2,2,1,2,2,3,1,2,2
2,2,1,2,2,3,1,1,1
2,2,1,2,2,3,1,2,1
2,2,1,2,2,3,1,1,2
2,2,1,2,5,2,4,1,1
5,2,1,2,2,3,1,2,2
5,2,1,2,2,3,1,2,2
5,2,1,2,2,3,1,2,2
5,2,1,2,2,3,1,1,2
5,2,1,2,2,3,1,1,2
5,2,1,2,2,3,1,2,2
5,2,1,2,2,3,1,1,2
5,2,1,2,2,3,1,1,2
5,2,1,2,2,3,1,1,2
2,2,5,2,2,3,1,1,1
2,2,5,2,2,3,1,1,2
4,2,1,2,2,3,1,1,1
1,2,1,2,5,3,1,1,2
2,2,1,2,5,3,1,1,2
5,2,8,2,5,1,3,1,1
2,2,1,2,2,3,1,1,1
5,2,5,2,2,3,3,1,1
5,2,1,2,2,3,1,1,2
5,2,1,2,2,3,1,1,2
5,2,7,2,2,3,1,1,1
5,2,7,2,2,3,1,1,1
2,2,1,2,5,2,1,3,2
4,2,1,2,7,3,1,1,1
2,2,5,2,2,3,1,1,1
2,2,1,2,2,3,1,1,2
5,2,1,2,2,3,1,1,2
5,2,1,2,2,3,1,1,2
5,2,1,2,2,3,2,1,2
5,2,1,2,2,3,1,1,2
5,2,1,2,2,3,1,1,2
5,2,1,2,6,2,3,3,1
5,2,1,2,2,3,1,1,1
5,2,1,2,2,2,1,1,1
5,2,1,2,2,2,1,1,1
5,2,1,2,2,3,1,1,1
4,2,5,2,7,1,3,2,1
4,2,1,2,2,3,1,1,2
2,2,1,2,7,1,1,1,2
5,2,1,2,2,3,1,1,2
4,2,1,3,7,2,3,2,2
2,2,1,2,2,3,1,1,2
5,2,1,2,6,3,1,2,2
5,2,1,2,2,3,1,1,2
5,2,1,2,2,3,1,1,2
5,2,1,2,2,3,1,1,2
2,2,1,2,2,3,1,1,2
2,2,1,2,2,3,1,1,1
2,2,1,3,5,3,1,1,1
2,2,1,2,2,3,1,2,2
2,2,1,2,2,3,1,1,1
2,2,1,2,2,3,1,2,1
2,2,1,2,2,3,1,2,1
2,2,1,2,2,3,1,1,2
2,2,1,2,2,3,1,2,2
2,2,1,2,2,3,1,2,1
2,2,1,2,2,3,1,2,1
2,2,1,2,2,3,1,1,1
2,2,1,2,2,3,1,1,1
2,2,1,2,2,3,1,2,1
2,2,1,2,2,3,1,1,1
2,2,1,2,2,3,1,2,1
2,2,1,2,2,3,1,1,1
2,2,1,2,2,3,1,1,2
2,2,1,2,2,3,1,2,1
2,2,1,2,2,3,1,1,2
2,2,1,2,2,3,1,2,1
2,2,1,2,2,3,1,2,1
2,2,1,2,2,3,1,1,1
2,2,1,2,2,3,1,1,2
2,2,1,2,2,3,1,1,1
2,2,1,2,2,3,2,1,2
2,2,1,2,2,3,1,1,2
2,2,1,2,2,3,1,2,2
2,2,1,2,2,3,1,2,2
2,2,1,2,2,3,1,2,1
2,2,1,2,2,3,1,2,2
2,2,1,2,2,3,1,1,1
2,2,1,2,2,3,1,1,2
2,2,1,2,2,3,1,2,1
1,2,1,2,5,2,1,2,2
1,2,1,4,5,3,1,2,1
4,2,1,2,2,3,1,2,1
4,2,1,2,2,3,1,1,1
4,2,1,2,7,1,1,3,2
4,2,8,2,5,3,2,4,1
2,2,8,2,5,3,1,3,1
2,2,5,2,6,1,4,1,1
2,2,1,2,5,2,1,1,1
2,2,5,2,5,3,1,1,2
4,2,5,2,5,2,2,1,1
2,2,5,3,5,2,4,1,2
2,2,5,3,7,1,1,1,1
5,2,1,2,5,2,2,1,2
2,1,1,2,2,2,1,1,1
2,1,1,2,2,3,1,1,2
2,1,1,2,2,3,1,1,2
2,1,1,2,2,3,2,1,2
2,1,1,2,2,3,1,6,2
2,1,1,2,2,3,2,1,2
2,1,1,2,2,3,1,1,2
2,1,1,2,2,3,2,1,2
2,1,1,2,2,3,1,1,2
5,1,5,2,2,2,1,1,1
5,1,5,2,2,3,1,1,1
2,1,1,2,2,3,1,1,2
1,1,1,4,5,3,1,1,2
4,1,1,2,5,2,1,1,2
4,1,8,2,2,3,1,1,2
4,1,8,2,2,3,1,1,1
1,1,1,4,5,1,1,1,1
5,1,1,2,2,3,1,1,2
5,1,1,2,2,3,1,1,2
5,1,1,2,2,3,1,1,2
5,1,1,2,2,3,1,1,2
5,1,1,2,2,2,1,1,2
5,1,1,2,2,3,1,2,2
4,1,5,2,2,3,1,1,1
4,1,5,2,2,3,3,1,1
4,1,5,2,2,3,3,1,1
2,1,1,2,7,1,1,1,2
5,1,5,2,2,2,1,1,2
6,1,1,2,2,2,2,1,2
6,1,1,2,2,2,1,1,2
6,1,1,2,2,3,1,1,2
5,1,5,2,5,3,4,1,2
4,1,5,2,2,3,1,1,2
5,1,5,3,5,3,1,2,1
5,1,1,2,2,3,1,1,2
5,1,1,2,2,3,1,1,2
5,1,1,2,2,3,1,1,2
2,1,1,2,2,3,1,1,2
2,1,8,2,2,3,2,1,1
2,1,8,2,2,3,1,1,1
2,1,8,2,2,3,1,1,1
2,1,8,2,2,3,1,1,1
2,1,8,2,2,3,1,1,2
2,1,8,2,2,3,1,1,1
5,1,1,2,5,3,2,1,2
5,1,1,2,5,3,1,1,2
2,1,1,2,2,3,1,1,1
2,1,1,2,2,3,1,1,1
2,1,1,2,2,3,1,1,1
5,1,1,2,2,3,1,1,2
6,1,1,2,2,3,1,1,2
5,1,1,2,2,3,1,1,2
2,1,4,2,6,1,4,1,2
5,1,5,2,2,3,1,1,2
5,1,5,2,2,3,1,1,2
2,1,5,2,2,3,4,1,1
5,1,5,2,6,2,1,1,2
2,1,1,2,2,3,1,1,2
2,1,1,2,2,3,1,1,2
2,1,1,2,2,3,1,2,2
2,1,1,2,2,3,1,1,2
1,1,1,2,5,1,1,1,2
5,1,1,2,2,3,1,2,2
5,1,1,2,2,3,1,2,2
5,1,1,2,2,3,1,1,2
5,1,2,2,2,3,2,1,2
5,1,2,2,2,3,2,1,2
5,1,2,2,2,3,1,1,2
5,1,2,2,2,3,1,1,2
5,1,2,2,2,3,1,1,2
5,1,2,2,2,3,1,1,2
5,1,2,2,2,3,1,1,2
5,1,2,2,2,3,1,1,2
5,1,2,2,2,3,1,1,2
5,1,2,2,2,3,1,1,2
5,1,2,2,2,3,1,1,2
5,1,2,2,2,3,1,1,2
5,1,2,2,2,3,1,1,2
5,1,2,2,2,3,1,1,2
5,1,2,2,2,3,1,1,2
5,1,2,2,2,3,1,1,2
5,1,2,2,2,3,1,1,2
5,1,2,2,2,3,1,1,2
5,1,2,2,2,3,1,1,2
5,1,2,2,2,3,1,1,2
5,1,2,2,2,3,1,1,2
5,1,2,2,2,3,1,1,2
4,1,1,2,2,2,1,2,2
4,1,1,2,2,3,1,1,2
4,1,1,2,2,3,1,1,2
4,1,1,2,2,3,1,1,2
4,1,1,2,2,3,1,1,2
4,1,1,2,2,3,1,1,2
4,1,1,2,2,3,1,1,2
4,1,1,2,2,3,1,1,2
4,1,1,2,2,3,1,1,2
2,1,1,2,2,3,1,1,1
2,1,1,2,2,3,1,1,1
2,1,1,2,2,3,1,1,1
2,1,1,2,2,3,1,1,2
2,1,1,2,2,3,1,1,2
2,1,1,2,2,3,1,1,2
2,1,1,2,2,3,1,1,2
2,1,1,2,2,3,1,1,2
2,1,1,2,2,3,1,1,2
2,1,1,2,2,3,1,1,2
2,1,1,2,2,3,1,1,2
2,1,1,2,2,3,1,1,2
2,1,1,2,2,3,1,1,2
2,1,1,2,2,3,1,1,2
2,1,1,2,2,3,1,1,1
2,1,1,2,2,3,1,1,2
2,1,1,2,2,3,1,1,2
2,1,1,2,2,3,1,1,2
2,1,1,2,2,3,1,1,2
2,1,1,2,2,3,1,1,2
2,1,1,2,2,3,1,1,2
2,1,1,2,2,3,1,1,2
2,1,1,2,2,3,1,1,2
2,1,1,2,2,3,1,1,2
2,1,1,2,2,3,1,1,2
2,1,1,2,2,3,1,1,2
2,1,1,2,2,3,1,1,2
2,1,5,2,2,3,1,1,1
2,1,5,2,2,3,1,1,2
2,1,8,2,2,3,1,1,2
2,1,8,2,2,3,1,1,2
2,1,8,2,2,3,1,1,1
2,1,8,2,2,3,1,1,1
2,1,8,2,2,3,3,1,1
2,1,1,2,5,2,1,1,1
5,1,1,2,2,3,1,1,1
5,1,1,2,2,3,1,1,1
1,1,5,3,5,1,1,2,2
2,1,1,2,2,3,1,1,1
5,1,1,2,2,3,1,2,1
5,1,1,2,2,3,1,1,2
5,1,1,2,2,3,2,2,2
5,1,1,2,2,3,2,1,2
5,1,1,2,2,3,3,1,2
5,1,1,2,2,3,2,1,1
5,1,1,2,2,3,2,1,1
5,1,1,2,2,3,2,1,1
5,1,1,2,2,3,3,1,1
5,1,1,2,2,3,2,1,2
5,1,1,2,2,3,2,1,1
5,1,1,2,2,3,2,1,1
5,1,1,2,2,3,2,1,2
5,1,1,2,2,3,3,1,2
5,1,1,2,2,3,2,1,1
5,1,1,2,2,3,2,1,1
5,1,1,2,2,3,2,1,1
5,1,1,2,2,3,2,1,1
5,1,1,2,2,3,2,1,1
5,1,1,2,2,3,3,1,2
5,1,1,2,2,3,2,1,1
5,1,1,2,2,3,2,1,2
5,1,1,2,2,3,2,1,2
5,1,1,2,2,3,2,1,2
5,1,1,2,2,3,2,1,2
5,1,1,2,2,3,3,1,2
5,1,1,2,2,3,3,1,2
5,1,1,2,2,3,3,1,2
5,1,1,2,2,3,1,4,1
5,1,1,2,2,3,2,1,2
5,1,1,2,2,3,2,1,2
5,1,1,2,2,3,1,1,1
5,1,1,2,2,3,2,1,2
5,1,1,2,2,3,1,1,2
5,1,1,2,2,3,1,1,2
5,1,1,2,2,3,2,4,2
5,1,1,2,2,3,2,1,2
5,1,1,2,2,3,2,1,2
5,1,1,2,2,3,1,1,1
5,1,1,2,2,3,1,1,1
5,1,1,2,2,3,1,1,1
2,1,1,2,2,3,1,1,1
2,1,1,2,2,3,4,1,1
2,1,1,2,2,3,1,1,1
2,1,1,2,2,3,1,1,1
2,1,1,2,5,3,4,2,1
5,1,1,2,2,3,2,2,2
5,1,1,2,2,3,1,1,1
2,1,1,2,2,3,1,1,2
1,1,1,4,5,2,1,3,2
2,1,1,2,2,2,2,1,1
2,1,1,2,2,3,1,1,2
2,1,1,2,2,3,1,1,2
2,1,1,2,2,3,1,1,2
2,1,1,2,2,3,1,1,1
4,1,1,2,2,3,1,2,2
4,1,1,2,2,3,2,1,2
4,1,1,2,2,3,3,1,2
4,1,1,2,2,3,1,1,2
4,1,1,2,2,3,1,1,2
4,1,1,2,2,3,1,1,2
4,1,1,2,2,3,2,1,2
4,1,1,2,2,3,2,1,2
4,1,1,2,2,3,2,2,2
4,1,1,2,2,3,1,1,2
4,1,1,2,2,3,1,1,2
4,1,1,2,2,3,1,2,2
4,1,1,2,2,3,2,1,2
4,1,1,2,2,3,1,1,2
4,1,1,2,2,3,1,1,2
4,1,1,2,2,3,1,1,2
5,1,1,2,2,3,1,1,2
4,1,5,2,2,3,1,1,2
4,1,5,2,2,3,2,1,2
4,1,5,2,2,3,1,1,2
4,1,5,2,2,3,1,2,2
5,1,5,2,2,3,1,2,2
5,1,5,2,2,3,1,1,1
5,1,5,2,2,3,1,1,2
5,1,5,2,2,3,1,1,1
5,1,5,2,2,3,1,1,2
5,1,5,2,2,3,1,1,2
5,1,5,2,2,3,1,1,1
5,1,5,2,2,3,1,1,1
4,1,5,2,2,3,1,1,2
5,1,7,2,2,2,1,1,2
2,1,1,2,2,3,1,2,2
2,1,1,2,2,3,1,1,2
2,1,1,2,2,3,1,2,2
2,1,5,2,2,3,1,1,1
2,1,5,2,2,3,1,1,2
2,1,5,2,2,3,1,1,1
5,1,1,2,2,3,1,1,1
5,1,1,2,2,3,1,1,1
2,1,1,3,5,2,1,1,2
2,1,1,2,2,3,1,1,2
2,1,1,2,2,3,1,1,2
2,1,4,2,2,3,1,2,2
4,1,9,3,6,1,3,1,2
2,1,5,2,2,3,1,1,2
4,1,8,2,2,3,1,1,2
4,1,8,2,2,3,1,1,2
5,1,1,2,2,3,1,1,2
5,1,1,2,2,3,1,1,2
5,1,1,2,2,3,1,1,1
5,1,1,2,2,3,1,1,1
5,1,1,2,2,3,1,1,1
5,1,1,2,2,3,1,1,1
5,1,1,2,2,3,1,1,1
5,1,1,2,2,3,1,2,1
5,1,1,2,2,3,1,1,1
5,1,5,2,2,3,1,1,2
5,1,5,2,2,3,1,1,2
5,1,5,2,2,3,1,1,2
5,1,5,2,2,3,1,1,2
5,1,5,2,2,3,1,1,1
5,1,5,2,2,3,1,4,2
5,1,5,2,2,3,1,1,1
5,1,5,2,2,3,1,1,2
5,1,5,2,2,3,1,2,1
2,1,1,2,2,3,1,1,2
2,1,1,2,2,3,1,1,2
2,1,1,2,2,3,1,1,2
2,1,1,2,2,3,1,1,2
2,1,1,2,2,3,1,1,2
2,1,1,2,2,3,1,1,2
2,1,1,2,2,3,1,1,1
2,1,1,2,2,3,1,1,2
2,1,1,2,2,3,1,1,2
5,1,5,2,2,3,1,4,2
5,1,5,2,2,3,1,1,2
5,1,5,2,2,3,3,1,2
5,1,5,2,2,3,1,1,2
5,1,5,2,2,3,1,1,2
5,1,5,2,2,3,1,1,1
5,1,5,2,2,3,2,1,1
5,1,5,2,2,3,1,1,2
5,1,5,2,2,3,1,1,2
5,1,5,2,2,3,2,1,2
5,1,5,2,2,3,2,1,2
5,1,5,2,2,3,1,1,2
5,1,5,2,2,3,2,1,1
5,1,5,2,2,3,2,1,2
5,1,5,2,2,3,1,1,2
5,1,5,2,2,3,1,1,2
5,1,5,2,2,3,2,1,2
5,1,5,2,2,3,2,1,2
5,1,5,2,2,3,1,1,2
5,1,5,2,2,3,2,1,2
2,1,1,2,2,3,1,1,2
2,1,1,2,2,2,1,1,2
2,1,5,2,2,3,1,2,1
4,1,5,2,6,3,3,1,1
5,1,1,2,2,3,1,2,1
5,1,8,2,2,3,1,2,1
5,1,8,2,2,3,2,2,2
5,1,8,2,2,3,1,1,2
5,1,8,2,2,3,1,2,2
2,1,8,2,2,3,1,1,2
2,1,8,2,2,3,1,1,2
2,1,8,2,2,3,1,1,2
2,1,8,2,5,3,1,1,2
2,1,5,2,6,1,1,3,2
6,1,1,2,2,3,3,1,1
6,1,1,2,2,3,1,1,1
6,1,1,2,2,3,1,1,2
6,1,1,2,2,3,1,1,2
6,1,1,2,2,3,1,1,2
6,1,1,2,2,3,1,5,2
6,1,1,2,2,3,1,1,1
6,1,1,2,2,3,1,1,1
6,1,1,2,2,3,1,1,1
4,1,8,2,2,3,1,1,1
5,1,5,2,6,1,2,1,2
2,1,8,2,7,1,1,1,2
5,1,5,2,2,2,1,1,2
4,2,5,3,7,1,3,2,1
4,1,1,2,2,3,1,1,1
4,1,1,2,2,3,2,1,1
4,1,1,2,2,3,2,1,1
4,1,1,2,2,3,2,1,1
4,1,1,2,2,3,1,1,1
4,1,1,2,2,3,1,1,1
4,1,1,2,2,3,1,1,1
4,1,1,2,2,3,1,1,1
4,1,1,2,2,3,4,1,1
4,1,1,2,2,3,1,1,2
4,1,1,3,2,3,1,1,2
4,1,1,2,2,3,1,1,2
4,1,1,2,2,3,1,1,2
5,1,1,2,2,3,1,1,2
5,1,1,2,2,3,1,1,2
5,1,1,2,2,3,1,1,2
5,1,1,2,2,3,1,1,2
5,1,1,2,2,3,1,1,2
5,1,1,2,2,3,1,1,2
5,1,1,2,2,3,2,1,2
5,1,1,2,2,3,1,1,2
5,1,1,2,2,3,1,1,2
5,1,1,2,2,3,1,1,2
5,1,5,3,2,2,1,1,2
4,1,1,2,7,2,1,2,2
2,1,1,2,2,2,2,1,1
4,1,5,2,2,2,1,1,1
2,1,1,2,5,3,1,1,1
2,1,5,2,2,2,1,1,2
2,1,1,2,2,3,1,1,1
2,1,1,2,2,3,1,1,2
2,1,1,2,2,3,1,1,2
2,1,1,2,2,3,1,1,2
2,1,1,2,7,2,1,2,2
5,1,1,2,2,3,1,1,2
5,1,1,2,2,2,1,1,2
5,1,1,2,2,3,1,1,2
5,1,1,2,2,3,1,2,2
5,1,1,2,2,3,1,1,2
5,1,1,2,2,3,1,1,2
5,1,1,2,2,3,1,1,2
5,1,1,2,2,3,1,1,2
2,1,1,2,5,3,2,1,2
4,1,1,2,2,3,1,1,1
4,1,1,2,2,3,1,1,1
4,1,1,2,2,3,2,1,1
4,1,1,2,2,3,4,2,1
4,1,1,2,2,3,4,1,1
4,1,1,2,2,3,3,1,1
4,1,1,2,2,3,2,1,1
4,1,1,2,2,3,4,1,1
4,1,1,2,2,3,4,1,2
4,1,1,2,2,3,1,1,2
4,1,1,2,2,3,1,1,1
4,1,1,2,2,3,1,1,1
4,1,1,2,2,3,4,1,1
4,1,1,2,2,3,4,1,1
4,1,1,2,2,3,2,1,1
4,1,1,2,2,3,4,1,1
4,1,1,2,2,3,4,1,1
4,1,1,2,2,3,4,1,1
4,1,1,2,2,3,4,1,1
4,1,1,2,2,3,4,1,1
4,1,1,2,2,3,3,1,2
4,1,1,2,2,3,3,1,2
4,1,1,2,2,3,1,1,1
4,1,1,2,2,3,3,1,1
4,1,1,2,2,3,2,1,2
4,1,1,2,2,3,1,1,1
4,1,1,2,2,3,1,1,1
4,1,1,2,2,3,1,1,1
4,1,1,2,2,3,1,1,1
4,1,1,2,2,3,4,2,1
4,1,1,2,2,3,3,4,1
4,1,1,2,2,3,1,1,1
4,1,1,2,2,3,1,1,2
4,1,1,2,2,3,1,1,1
4,1,1,2,2,3,1,1,1
4,1,1,2,2,3,1,1,1
4,1,1,2,2,3,1,1,2
4,1,1,2,2,3,2,1,1
4,1,1,2,2,3,2,4,1
2,1,5,2,2,3,1,1,1
1,1,1,4,5,3,1,2,2
4,1,1,2,2,2,1,1,2
4,1,1,2,2,2,1,2,2
4,1,1,2,2,3,1,1,2
4,1,5,2,2,3,1,1,1
4,1,1,2,2,3,1,1,2
4,1,1,2,2,3,1,1,2
4,1,1,2,2,2,1,1,2
5,1,1,2,2,3,1,1,2
5,1,1,2,2,3,1,1,2
5,1,1,2,2,3,1,1,2
5,1,1,2,2,3,2,1,2
5,1,1,2,2,3,1,1,2
5,1,1,2,2,3,1,1,2
5,1,1,2,2,3,1,1,2
5,1,1,2,2,3,1,1,2
5,1,1,2,2,3,2,1,2
5,1,1,2,2,3,1,1,2
5,1,1,2,2,3,4,2,2
5,1,1,2,2,3,3,1,2
5,1,1,2,2,3,4,1,2
5,1,1,2,2,3,4,2,2
5,1,1,2,2,3,1,1,2
5,1,1,2,2,3,1,1,2
5,1,1,2,2,3,1,1,2
5,1,1,2,2,3,4,1,2
5,1,1,2,2,3,4,1,2
4,1,5,2,6,1,4,1,2
2,1,1,2,2,3,1,1,1
2,1,1,2,2,3,1,1,1
2,1,5,2,2,3,1,1,2
2,1,5,2,2,3,1,1,2
2,1,5,2,2,3,1,2,2
5,1,5,2,2,3,1,1,2
2,1,1,2,2,3,1,1,1
5,1,1,2,2,2,1,1,2
5,1,8,2,2,3,1,1,2
4,1,1,2,2,3,1,1,2
4,1,1,2,2,3,1,1,2
5,1,1,2,2,3,2,1,2
5,1,1,2,2,3,1,1,2
5,1,1,2,2,3,2,1,2
5,1,1,2,2,3,1,2,2
5,1,1,2,2,3,1,2,2
5,1,1,2,2,3,3,1,2
5,1,1,2,2,3,2,1,2
4,1,1,2,2,3,1,2,2
4,1,1,2,2,3,1,2,2
4,1,1,2,2,3,1,2,2
2,1,1,2,2,3,2,1,1
2,1,1,2,2,3,3,1,1
2,1,1,2,2,3,3,1,1
2,1,1,2,2,3,1,2,1
2,1,1,2,2,3,2,1,1
2,1,1,2,2,3,1,1,1
2,1,1,2,2,3,1,1,2
2,1,1,2,2,3,1,1,1
2,1,1,2,2,3,3,4,1
2,1,1,2,5,3,1,4,1
2,1,1,3,5,2,1,3,2
4,1,1,2,2,3,1,1,2
4,1,1,2,2,3,1,1,2
4,1,1,2,2,3,1,2,2
4,1,1,2,2,3,1,2,2
4,1,1,2,2,3,1,1,1
4,1,1,2,5,3,1,1,1
6,1,1,2,2,3,1,1,2
6,1,1,2,2,3,1,1,2
6,1,1,2,2,3,1,1,2
6,1,1,2,2,3,1,1,2
6,1,1,2,2,3,1,1,2
6,1,1,2,2,3,2,1,2
6,1,1,2,2,3,1,1,2
5,1,5,2,2,3,2,1,2
4,1,8,2,2,3,1,1,1
2,1,5,3,5,3,1,1,2
5,1,1,2,2,3,1,4,2
5,1,1,2,2,3,1,2,2
5,1,1,2,2,3,1,1,2
4,1,5,2,2,3,1,1,1
2,1,1,2,2,3,2,1,2
2,1,8,2,2,3,1,1,2
2,1,8,2,2,3,1,2,2
2,1,8,2,2,3,1,1,2
2,1,8,2,2,3,2,1,2
2,1,8,2,2,3,1,1,2
2,1,8,2,2,3,1,1,2
2,1,8,2,2,3,1,1,2
2,1,8,2,2,3,1,1,2
2,1,8,2,2,3,1,1,2
5,1,1,2,2,3,1,1,2
2,1,5,3,6,2,1,3,2
5,1,1,2,2,3,1,1,2
5,1,1,2,2,3,1,1,2
5,1,1,2,2,3,1,1,2
5,1,1,2,2,3,1,1,2
5,1,1,2,2,3,2,1,2
5,1,1,2,2,3,1,1,2
4,1,1,4,2,3,1,1,2
2,1,8,2,2,3,1,2,2
4,1,5,2,5,3,1,1,1
5,1,1,2,2,3,1,2,2
5,1,1,2,2,3,1,1,1
5,1,1,2,2,3,1,1,1
5,1,1,2,2,3,1,1,2
5,1,1,2,2,3,1,1,2
2,1,1,2,2,3,1,1,2
4,1,1,2,2,3,2,1,2
2,1,5,2,2,3,1,2,1
1,1,1,4,5,1,1,1,2
2,1,1,2,6,1,1,3,1
2,1,1,2,2,3,1,1,2
2,1,1,2,2,3,1,1,2
2,1,1,2,2,3,1,1,2
2,1,1,2,2,3,1,1,2
5,1,5,2,2,3,1,1,1
1,1,1,4,5,1,1,2,1
5,1,1,2,2,3,1,4,1
5,1,1,2,2,3,1,2,2
2,1,1,2,2,3,1,2,2
2,1,1,2,2,3,1,1,2
2,1,1,2,2,3,1,1,2
2,1,1,2,2,3,2,1,2
2,1,1,2,2,3,2,1,2
2,1,1,2,2,3,2,1,2
2,1,1,2,2,3,4,1,2
2,1,1,2,2,3,4,1,2
2,1,1,2,2,3,2,1,2
2,1,1,2,2,3,1,2,2
2,1,1,2,2,3,1,1,2
2,1,1,2,2,3,1,1,2
2,1,1,2,2,3,1,1,2
2,1,1,2,2,3,1,1,2
2,1,1,2,2,3,1,1,2
2,1,1,2,2,3,2,2,2
4,1,2,2,5,2,3,1,1
2,1,1,2,2,3,1,1,2
2,1,1,2,2,3,1,1,2
2,1,1,2,2,3,1,1,2
2,1,1,2,2,3,1,2,2
2,1,1,2,2,3,1,1,2
2,1,1,2,2,3,1,1,2
2,1,1,2,2,3,1,1,2
2,1,1,2,2,3,1,1,2
2,1,1,2,2,3,1,1,2
2,1,1,2,2,3,1,1,2
4,1,1,2,2,3,1,1,2
4,1,1,2,2,3,1,1,2
4,1,1,2,2,3,1,1,2
4,1,1,2,2,3,1,1,2
1,1,1,4,5,2,1,3,2
5,1,5,2,2,3,1,1,1
5,1,5,2,2,3,1,1,2
2,1,1,2,5,1,1,1,2
5,1,1,2,2,3,1,1,2
4,1,1,2,2,3,1,1,1
4,1,1,2,2,3,1,1,2
4,1,1,2,2,3,1,1,2
5,1,1,2,2,3,1,2,2
2,1,5,2,2,3,1,2,2
2,1,5,2,2,3,1,1,2
2,1,5,2,2,3,1,1,2
2,1,5,2,2,2,1,2,2
2,1,5,2,2,3,1,1,2
2,1,7,2,2,3,1,1,2
5,1,1,2,6,1,3,1,2
5,1,1,2,2,2,1,1,2
5,1,1,2,2,3,1,1,2
4,1,1,2,2,3,1,1,2
4,1,1,2,2,3,1,1,2
4,1,1,2,2,3,1,1,2
6,1,1,2,2,2,1,1,2
5,1,1,2,2,3,1,1,2
5,1,1,2,2,3,1,1,2
5,1,1,2,2,3,1,1,2
5,1,1,2,2,3,1,1,2
5,1,1,2,2,3,1,2,2
5,1,1,2,2,3,1,2,2
5,1,1,2,2,3,1,1,2
5,1,1,2,2,3,1,1,2
5,1,1,2,2,3,1,2,2
5,1,1,2,2,3,1,1,2
5,1,1,2,2,3,1,1,2
5,1,1,2,2,3,1,1,2
5,1,1,2,2,3,1,1,2
5,1,1,2,2,3,1,3,2
5,1,1,2,2,3,1,2,2
5,1,1,2,2,3,1,2,2
5,1,1,2,2,3,1,1,2
5,1,1,2,2,3,1,1,2
5,1,1,2,2,3,1,1,2
5,1,1,2,2,3,1,2,2
5,1,1,2,2,3,1,1,2
5,1,1,2,2,3,1,1,2
5,1,1,2,2,3,1,1,2
5,1,1,3,2,3,1,1,2
5,1,5,2,2,3,1,2,2
4,1,5,2,2,3,1,4,2
5,1,1,2,2,3,1,1,2
2,1,1,2,2,2,1,1,2
4,1,5,2,2,3,1,1,2
1,1,1,3,5,1,1,1,2
5,1,5,2,2,3,1,1,2
1,1,2,4,5,2,1,1,2
4,1,1,2,2,3,1,1,2
4,1,1,2,2,3,1,1,2
4,1,1,2,2,3,1,1,2
4,1,8,2,2,3,1,1,2
4,1,8,2,2,3,2,1,2
4,1,8,2,2,3,1,1,2
4,1,8,2,2,3,1,1,2
4,1,8,2,2,3,3,1,2
4,1,8,2,2,3,2,1,2
4,1,8,2,2,3,2,1,2
4,1,8,2,2,3,3,1,2
4,1,8,2,2,3,3,1,2
4,1,8,2,2,3,1,1,2
4,1,8,2,2,3,1,1,2
4,1,8,2,2,3,1,1,2
4,1,8,2,2,3,2,1,2
4,1,8,2,2,3,4,1,2
4,1,8,2,2,3,1,1,2
4,1,8,2,2,3,2,1,2
4,1,8,2,2,3,1,1,2
2,1,8,2,2,3,1,2,1
2,1,8,2,2,3,1,1,1
2,1,1,2,2,3,1,1,2
5,1,1,2,2,3,1,1,2
5,1,1,2,2,3,1,1,2
5,1,1,2,2,3,2,1,2
5,1,1,2,2,3,1,1,2
5,1,1,2,2,3,2,2,2
5,1,1,2,2,3,1,1,2
5,1,1,2,2,3,2,1,2
5,1,1,2,2,3,1,1,2
5,1,1,2,2,3,1,1,2
5,1,1,2,2,3,4,1,2
5,1,1,2,2,3,1,1,2
5,1,1,2,2,3,1,1,2
5,1,1,2,2,3,1,1,2
5,1,1,2,2,3,2,1,2
5,1,1,2,2,3,2,1,2
5,1,1,2,2,3,1,1,2
2,1,1,2,2,3,1,1,1
2,1,1,2,2,3,1,2,1
2,1,1,2,2,3,1,1,1
2,1,1,2,2,3,1,1,2
2,1,1,2,2,3,1,1,2
2,1,1,2,2,3,1,1,1
2,1,1,2,2,3,1,2,1
2,1,1,2,2,3,1,2,2
2,1,5,2,2,3,1,1,1
5,1,1,2,2,3,1,1,2
5,1,1,2,2,3,1,1,2
6,1,1,2,2,3,1,2,2
2,1,1,2,6,3,1,1,2
2,1,1,2,2,3,1,1,1
2,1,5,2,2,3,1,1,2
2,1,5,2,2,3,1,1,2
2,1,5,2,2,3,1,1,2
2,1,5,2,2,3,1,2,2
2,1,1,2,2,3,1,1,2
2,1,1,2,2,3,1,1,1
2,1,1,2,2,3,2,1,2
2,1,1,2,2,3,1,1,2
2,1,1,2,2,3,1,1,2
2,1,1,2,2,3,1,1,2
2,1,1,2,2,3,1,1,1
2,1,1,2,2,3,1,1,2
2,1,1,2,2,3,1,1,2
2,1,1,2,2,3,1,1,1
2,1,1,2,2,2,1,1,1
2,1,1,2,2,3,1,1,2
2,1,1,2,2,3,1,2,2
2,1,1,2,2,3,1,1,1
2,1,1,2,2,3,2,1,1
2,1,1,2,2,3,2,2,1
2,1,1,2,2,3,1,1,1
2,1,1,2,2,3,1,1,2
2,1,1,2,2,3,1,1,2
2,1,1,2,2,3,1,1,2
2,1,1,2,2,3,1,1,1
2,1,1,2,2,3,1,1,1
2,1,1,2,2,3,1,1,1
2,1,1,2,2,3,1,1,1
2,1,1,2,2,3,1,1,2
2,1,1,2,2,3,1,1,2
2,1,1,2,2,3,1,1,2
2,1,1,2,2,3,1,1,1
2,1,1,2,2,3,1,2,1
2,1,1,2,2,3,1,1,1
2,1,1,2,2,3,1,1,2
2,1,1,2,2,3,1,1,2
2,1,1,2,2,3,1,1,2
2,1,1,2,2,3,1,1,2
2,1,1,2,2,3,1,1,2
2,1,1,2,2,3,1,1,2
2,1,1,2,2,3,1,1,1
2,1,1,2,2,3,1,2,1
2,1,1,2,2,3,1,1,1
5,1,5,2,6,3,4,1,2
5,1,5,2,2,3,1,4,2
5,1,1,2,2,3,1,1,2
2,1,1,2,2,3,1,1,2
5,1,1,2,5,3,1,2,2
5,1,7,2,2,3,1,1,1
1,1,8,4,5,3,1,1,2
2,1,1,2,2,3,1,1,1
4,1,5,2,2,3,2,2,2
4,1,5,2,2,3,1,2,2
5,1,5,4,2,2,1,4,2
4,1,1,2,5,3,1,4,2
4,1,1,2,5,3,2,1,2
5,1,4,2,7,2,1,1,2
5,1,1,2,2,3,1,1,2
5,1,1,2,2,3,1,1,2
5,1,1,2,2,3,1,1,2
5,1,1,2,2,3,1,1,2
5,1,1,2,2,3,1,1,2
5,1,1,2,2,3,1,1,2
5,1,1,2,2,2,2,1,2
2,1,1,2,2,2,4,1,1
2,1,1,2,2,2,2,1,1
2,1,1,2,2,3,3,1,1
2,1,1,2,2,3,3,1,1
2,1,1,2,2,3,3,1,1
2,1,1,2,2,3,3,1,1
2,1,1,2,2,2,4,1,1
5,1,5,2,2,3,1,1,2
2,1,1,2,2,3,1,1,1
2,1,1,2,2,3,1,2,1
2,1,1,2,2,3,1,1,2
2,1,1,2,2,3,1,1,2
2,1,1,2,2,3,1,2,1
5,1,1,2,2,3,1,1,2
5,1,1,2,2,3,1,2,2
1,1,5,4,7,2,1,2,2
5,1,1,2,2,3,2,2,2
5,1,1,2,2,3,2,1,2
5,1,1,2,2,3,2,1,2
5,1,1,2,2,3,1,1,2
5,1,1,2,2,3,2,1,2
5,1,1,2,2,3,2,1,2
5,1,1,2,2,3,2,2,2
5,1,1,2,2,3,1,1,2
5,1,1,2,2,3,1,1,2
5,1,1,2,2,3,1,1,2
5,1,1,2,2,3,2,1,2
5,1,1,2,2,3,2,1,2
5,1,1,2,2,3,1,1,2
5,1,1,2,2,3,2,1,2
5,1,1,2,6,1,1,1,2
2,1,1,2,7,1,4,1,2
2,1,1,2,2,3,1,1,2
2,1,1,2,2,3,1,1,2
2,1,5,2,2,3,1,2,1
4,1,8,2,2,3,1,1,1
4,1,8,2,2,3,1,1,2
4,1,8,2,2,3,1,1,1
4,1,8,2,2,3,1,1,1
4,1,8,2,2,3,2,1,2
4,1,8,2,2,3,1,1,1
4,1,8,2,2,3,1,1,1
4,1,8,2,2,3,1,2,1
4,1,8,2,2,3,2,1,1
4,1,8,2,2,3,1,1,1
4,1,8,2,2,3,2,1,2
4,1,8,2,2,3,1,1,1
4,1,8,2,2,3,2,1,1
4,1,8,2,2,3,2,1,1
4,1,8,2,2,3,1,1,1
4,1,8,2,2,3,2,1,1
4,1,8,2,2,3,3,1,2
4,1,8,2,2,3,2,1,2
4,1,8,2,2,3,1,1,1
4,1,8,2,2,3,1,1,2
